{
  "meta": {
    "testCaseId": "test-specimen-001",
    "entity": "specimen",
    "operation": "delete",
    "date": "31-march-2020"
  },

  "data": {
    "id": "f279e763-a35e-4585-b55f-e63252e571bb"
  },
  
  "response":{
    "statusCode": 200,
    "message" : "The entity has been deleted successfully",
    "responseObject": 
    {
    


    }
  }
}