{
    "meta":{
	    "testCaseId": "test-Diagnosis Master without Property Type",
	    "entity"    : "diagnosis",
	    "operation" : "post",
	    "date"      : "31-march-2020"
	},
	"data" :{
		"alias": "sodac5",
		"diagnosisData": [],
		"inclusionsItem": [],
		"exclusionsItem": [],
		"code": "NIK-016",
		"description": "fabcity5",
		"hierarchyLevel": "2",
		"id": "00000000-0000-0000-0000-000000000000",
		"notifiable": true,
		"parentId": "589d7595-ac61-4f14-93c6-76066ebd94f4",
		"property": "",
		"sensitive": true,
		"status": "ACTIVE",
		"terminologyId": "280325f4-b07e-424c-b23a-7b8d66a79f6f",
		"IsReadOnly": false,
		"children": [],
		"ParentId": "589d7595-ac61-4f14-93c6-76066ebd94f4"
	},

	"response": {
		"statusCode": 400,
		"message" : "The entity without Property Type has been received successfully",
		"responseObject": {
		

		}
	}
}