{
  "meta": {
    "testCaseId": "test-Add Duplicate Service Configuration Setup Name",
    "entity": "serviceconfigsetupmasters",
    "operation": "post",
    "date": "30-March-2021"
  },
  "data": {
    "status": "ACTIVE",
    "name": "Configuration 02",
    "code": "Auto Generated"
  },


  "response": {
    "statusCode": 400,
    "message": "The entity has not added. Name can not be duplicate",
    "responseObject": {

    }
  }
}