{
  "meta": {
    "testCaseId": "test-Add Employee with Dependent Details Relationship Prefix Gender",
    "entity": "employeemasters",
    "operation": "post",
    "date": "09-March-2021"
  },
  "data":{
    "prefix": "264ee065-3a49-4275-81f5-c11371ac995c",
    "gender": "FEMALE",
    "relationshipPrefix": "00000000-0000-0000-0000-000000000000",
    "nationality": "489944c1-d47d-4bc1-922e-d013932309c9",
    "religion": "336d8f77-9931-40a7-a9ef-ddb554e24300",
    "maritalStatus": "fd891f11-a663-497e-984b-a74990d983af",
    "bloodGroup": "1607db8a-bfd9-4df1-b1fd-ff53b50bc3d8",
    "IsCreateUser": false,
    "UserId": "",
    "employeeMoreInformation": {
      "relationshipPrefix": "28b4fcd6-695e-4ad6-a2d0-a20d35ce1fa8",
      "prefix": "3eb9aa44-b0c0-47b4-baeb-63e2c6539db0",
      "nationality": "489944c1-d47d-4bc1-922e-d013932309c9",
      "religion": "336d8f77-9931-40a7-a9ef-ddb554e24300",
      "maritalStatus": "fd891f11-a663-497e-984b-a74990d983af",
      "bloodGroup": "1607db8a-bfd9-4df1-b1fd-ff53b50bc3d8",
      "firstName": "Nayna",
      "lastName": "Patel",
      "middleName": "M",
      "crnumber": "QA/2021-2-25/00133"
    },
    "employeeContactDetail": [],
    "employeeEducationDetail": [],
    "employeeDependentDetail": [
      {
        "prefix": "264ee065-3a49-4275-81f5-c11371ac995c",
        "relation": "28b4fcd6-695e-4ad6-a2d0-a20d35ce1fa8",
        "firstName": "Jinal",
        "lastName": "Patel",
        "gender": "FEMALE",
        "dob": "1985/05/10",
        "middleName": "M",
        "dependentNumber": 4,
        "validTill": "2021/01/01",
        "crNumber": "QA/2021-2-25/00166",
        "relationText": "Aunty",
        "prefixText": "Miss",
        "genderText": "FEMALE"
      }
    ],
    "employeeBiometrics": [
      {
        "biometricsType": "picture",
        "filePath": "{}",
        "flagForAddedOrRemove": true
      },
      {
        "biometricsType": "signature",
        "filePath": "{\"ImagePath\":\"\"}",
        "flagForAddedOrRemove": true
      },
      {
        "biometricsType": "fingerprint",
        "filePath": "{\"Files\":[]}",
        "flagForAddedOrRemove": true
      }
    ],
    "employeeProfessionalDetail": {
      "levelId": "",
      "employeeCategoryId": "DOCTOR",
      "typeId": "cc3d7129-b5e1-4ad0-a10e-20848f256ea7",
      "employmentStatus": "",
      "designation": "00000000-0000-0000-0000-000000000000",
      "specialityId": "",
      "specialityCategoryId": "",
      "codeBlueStatusId": "00000000-0000-0000-0000-000000000000",
      "knownLanguages": "\"\"",
      "reportingAuthorityId": "00000000-0000-0000-0000-000000000000"
    },
    "employeeServiceGroupAndActivity": [],
    "employeeDepartmentCaptureArea": [],
    "status": "ACTIVE",
    "employeeNumber": "EMP_${TESTRUNEXECTIME}",
    "firstName": "Nikita",
    "lastName": "Patel",
    "code": "Auto generated",
    "dob": "1985/05/05",
    "crnumber": "QA/2021-2-25/00133"
  },

  "response": {
    "statusCode": 200,
    "message": "The entity has been added successfully",
    "responseObject": {

    }
  }
}