{
  "meta":{
    "testCaseId": "test-CurrencyConversionRate-002",
    "entity"    : "ccr",
    "operation" : "post",
    "date"      : "31-march-2020"
  },
  "data" : {
    "fromCurrencyCode": "Indian Rupees",
    "iseditmode": false,
    "fromCurrencyValue": 1,
    "toCurrencyCode": "5c04595c-67bf-11eb-91de-5aa9a51b4c6e",
    "toCurrencyValue": 30,
    "comment": "Test",
    "facilityCode": "b56d35a7-eaa9-4765-a00a-c9c1f96e9b0c",
    "authorized": false
  },
  "response":{
    "statusCode": 200,
    "message" : "The entity has been received successfully With Proper Details",
    "responseObject": {

    }
  }
}