{
  "meta": {
    "testCaseId": "test-CurrencyConversionRate-002",
    "entity": "ccr",
    "operation": "put",
    "date": "10-december-2020"
  },
  "data": {
    "id": "646ccf54-4710-4bfa-b844-4bb3e435f2a5",
    "facilityCode": "b56d35a7-eaa9-4765-a00a-c9c1f96e9b0c",
    "fromCurrencyCode": "Indian Rupees",
    "toCurrencyCode": "5c04595c-67bf-11eb-91de-5aa9a51b4c6e",
    "fromCurrencyValue": 1,
    "toCurrencyValue": 40,
    "createdBy": "bb0663c0-ec09-481d-941a-5878495b53a4",
    "createdAt": "2021-04-01T04:01:10.226042",
    "lastModifiedBy": "00000000-0000-0000-0000-000000000000",
    "lastModifiedAt": "0001-01-01T00:00:00",
    "approvedBy": "00000000-0000-0000-0000-000000000000",
    "approvedAt": "0001-01-01T00:00:00",
    "comment": "Test",
    "authorized": false
  },
  "response": {
    "statusCode": 200,
    "message": "The entity has been received successfully with Update to Currency Value",
    "responseObject": {

    }
  }
}