{
  "meta": {
    "testCaseId": "test-registrationtype-001",
    "entity": "registrationtype",
    "operation": "post",
    "date": "27-Feb-2021"
  },
  "data": {

	  "code": "Auto generated",
	  "name": "A_${TESTRUNEXECTIME}",
	  "cardReprintFee": false,
	  "chargeRegistrationFee": false,
	  "facilityId": "af8f23be-7e67-4652-a9e9-561f2a7bdec1",
	  "patientQueueDetails":[],
	  "patientQueueMaster": {
		  "queueQuotaType": "PERCENTAGE",
		  "queueQuotaValue": 0,
		  "registrationtypeId": "30a3e65a-7ca5-4d76-a73d-73b23ffea4b7"
	  },
	  "patientRegistrationFee":{
		  "cardReprintFeesDiffForRegtype": false,
		  "regFeesDiffForRegtype": false,
		  "registrationtypeId": "30a3e65a-7ca5-4d76-a73d-73b23ffea4b7",
		  "renewalDays": 0,
		  "renewalFeesDiffForRegtype": false,
		  "validityPeriod": 0

	  },
	  "patientRegistrationFeeDetail":[],
	  "patientRegistrationRenewalDetail":[],
	  "patientRegistrationReprintDetail": [],
	  "queuemanagementApplicable": true,
	  "regCategory": "GEENRALCATEGORY",
	  "registrationParamInfoDetail": [{
		  "applicableVisitType": "OPIP",
		  "enable": false,
		  "expand": false,
		  "patientRegistrationFeature": "PERSONALIDENTIFICATION",
		  "patientRegistrationFeatureDisplay": "Personal Identification",
		  "rowIdentifier": "cd4b9d52-b7f9-4769-ba3a-c45abb548ee6",
		  "srno": 1
	  }, {
		  "applicableVisitType": "OPIP",
		  "enable": false,
		  "expand": false,
		  "patientRegistrationFeature": "CONTACTDETAIL",
		  "patientRegistrationFeatureDisplay": "Contact Detail",
		  "rowIdentifier": "e99fedc4-378e-4e1e-8598-d3c8105f2fc0",
		  "srno": 2
	  }, {
		  "applicableVisitType": "OPIP",
		  "enable": false,
		  "expand": false,
		  "patientRegistrationFeature": "EMERGENCYCONTACTDETAIL",
		  "patientRegistrationFeatureDisplay": "Emergency Contact Detail",
		  "rowIdentifier": "b04384fe-4e68-4e37-8f8b-52a2dd1aa675",
		  "srno": 3
	  }, {
		  "applicableVisitType": "OPIP",
		  "enable": false,
		  "expand": false,
		  "patientRegistrationFeature": "REFFERALDETAIL",
		  "patientRegistrationFeatureDisplay": "Refferal Detail",
		  "rowIdentifier": "ac41523c-e183-4da0-9102-4e261fa71275",
		  "srno": 4
	  }, {
		  "applicableVisitType": "OPIP",
		  "enable": false,
		  "expand": false,
		  "patientRegistrationFeature": "BIOMETRIXDETAIL",
		  "patientRegistrationFeatureDisplay": "Biometrics Details",
		  "rowIdentifier": "8534384c-7477-47d3-8fce-623a5d5549df",
		  "srno": 5
	  }, {
		  "applicableVisitType": "OPIP",
		  "enable": false,
		  "expand": false,
		  "patientRegistrationFeature": "INSURANCEDETAIL",
		  "patientRegistrationFeatureDisplay": "Insurance Detail",
		  "rowIdentifier": "04220d3a-61f9-4006-b06e-eb1dcd1641e7",
		  "srno": 6
	  }, {
		  "applicableVisitType": "OPIP",
		  "enable": false,
		  "expand": false,
		  "patientRegistrationFeature": "PATIENTDEATHDETAIL",
		  "patientRegistrationFeatureDisplay": "Patient Death Detail",
		  "rowIdentifier": "d655089b-9fe3-44d5-a363-3451453b6d20",
		  "srno": 7
	  }],
	  "renewalRegistrationFee": true,
	  "status": "ACTIVE"


  },
  "response": {
    "statusCode": 200,
    "message": "The entity has been received successfully for General Category. ",
    "responseObject": {

	}
  }
}