{
  "meta":{
    "testCaseId": "test-druggeneric-002",
    "entity"    : "druggeneric",
    "operation" : "post",
    "date"      : "30-december-2020"
  },
  "data" : {
    "status": "ACTIVE",
    "drugGenericsFormStrengths": [
      {
        "formCode": "00000000-0000-0000-0000-000000000000",
        "strength": null,
        "strengthUom": "00000000-0000-0000-0000-000000000000",
        "rowIdentifier": "00000000-0000-0000-0000-000000000000"
      }
    ],
    "dosageApplicable": true,
    "displayName": "abc",
    "code": "Auto generated",
    "drugGenericsRouteofaAministrations": [
      {
        "routeOfAdministrationCode": "0d428cf4-f64d-427b-a2ad-32b93fdfb4a6"
      }
    ],
    "classificationCode": "a44b445a-a616-4c1e-a094-af29ea93f6cd",
    "classCode": "b486f280-fa25-4222-bc03-2db62c384a59",
    "overTheCounterSale": false,
    "restrictedDrug": false,
    "authorizationRequired": false,
    "antibiotic": false
  },
  "response":{
    "statusCode": 400,
    "message" : "The entity has Not created. without Drug form and Strength",
    "responseObject": {

    }
  }
}