{
  "meta": {
    "testCaseId": "test-patientprefix",
    "entity": "patientprefix",
    "operation": "post",
    "date": "04-March-2021"
  },
  "data": {
    "status": "ACTIVE",
    "prefixType": "RELATIONPREFIX",
    "name": "MrsI",
    "code": "Auto generated",
    "applicableGender": "MALE",
    "relationship": "00000000-0000-0000-0000-000000000000"
  },
  "response": {
    "statusCode": 400,
    "message": "The entity has Not received. Without Relationship. ",
    "responseObject": {

	}
  }
}