{
    "meta":{
	    "testCaseId": "test-Add New Master Without  To Age UoM",
	    "entity"    : "vitalsignchartconfiguration",
	    "operation" : "post",
	    "date"      : "31-march-2020"
	},
	"data" :{
		"location": "29482511-876a-4a1b-a043-38dc184aea11",
		"locationName": {
			"name": "JVS Multi speciality",
			"displayName": "JVS Multi speciality",
			"id": "29482511-876a-4a1b-a043-38dc184aea11"
		},
		"status": "ACTIVE",
		"vitalsignchartdetails": [
			{
				"sourceName": [
					"Oral",
					"Axillary",
					"Rectal"
				],
				"formula": "a=b",
				"showRhythm": 2,
				"rhythm": 4,
				"showVolume": 3,
				"volume": 1,
				"showCharacter": 5,
				"character": 0,
				"showOxygenSource": 6,
				"oxygenSource": 8,
				"showFlowRate": 7,
				"oxygenFlowRate": 9,
				"positions": "[{\"id\":\"STANDING\",\"displayName\":\"Standing\"},{\"id\":\"SITTING\",\"displayName\":\"Sitting\"}]",
				"measurementSite": "[{\"id\":\"LEFTARM\",\"displayName\":\"Left Arm\"},{\"id\":\"RIGHTARM\",\"displayName\":\"Right Arm\"}]",
				"source": "[{\"id\":\"ORAL\",\"displayName\":\"Oral\"},{\"id\":\"AXILLARY\",\"displayName\":\"Axillary\"},{\"id\":\"RECTAL\",\"displayName\":\"Rectal\"}]",
				"vitalSignParameterId": "24c48cac-c094-49ac-aa18-985f7df87a8d",
				"vitalSignChartSectionId": "c776dcb6-dd70-4970-80ff-a79eca1eb179",
				"formulaItem": true,
				"showPosition": true,
				"showMeasurementFrom": true,
				"showSource": true,
				"vitalSignParameterName": "Testing",
				"vitalSignChartSectionName": "sasadasd",
				"positionsName": [
					"Standing",
					"Sitting"
				],
				"measurementSiteName": [
					"Left Arm",
					"Right Arm"
				]
			}
		],
		"name": "vital@12345678910 ",
		"fromAge": 3,
		"toAge": 6,
		"code": "Auto generated",
		"specialty": "f0a91a2f-2f90-4980-8ecf-458193720793",
		"fromAgeUom": "d6bd455b-d158-458c-a9d7-72f065055be6",
		"toAgeUom": ""
	},


	"response": {
		"statusCode": 400,
		"message" : "Add New Master Without  To Age UoM",
		"responseObject": {
		

		}
	}
}