{
	"testCases": [
		{
			"type": "testcase",
			"file": "resources/testcases/GeneralMaster/relationship/TC_86_Post_Add Relationship with all Mandatory Information.json"
		},
		{
			"type": "testcase",
			"file": "resources/testcases/GeneralMaster/relationship/TC_87_Post_Add Relationship with Auto Generated with Prefix.json"
		},
		{
			"type": "testcase",
			"file": "resources/testcases/GeneralMaster/relationship/TC_90_Post_Add Relationship without Name- Mandatory field.json"
		},

		{
			"type": "testcase",
			"file": "resources/testcases/GeneralMaster/relationship/TC_91_Post_Add Duplicate Relationship Name.json"
		},
		{
			"type": "testcase",
			"file": "resources/testcases/GeneralMaster/relationship/TC_92_Post_Add Relationship Name With Special chars + Alphanumeric.json"
		},
		{
			"type": "testcase",
			"file": "resources/testcases/GeneralMaster/relationship/TC_93_Post_Add Blank space in the Relationship Name.json"
		},
		{
			"type": "testcase",
			"file": "resources/testcases/GeneralMaster/relationship/TC_94_Post_Add Relationship Name with more then 50 characters.json"
		},
		{
			"type": "testcase",
			"file": "resources/testcases/GeneralMaster/relationship/TC_95_Post_Add Relationship Name with min length 2.json"
		},
		{
			"type": "testcase",
			"file": "resources/testcases/GeneralMaster/relationship/TC_88_Post_Add Relationship with Auto Generated without  Prefix.json"
		},
		{
			"type": "testcase",
			"file": "resources/testcases/GeneralMaster/relationship/TC_89_Post_Add Relationship with User Defined Code.json"
		},
		{
			"type": "testcase",
			"file": "resources/testcases/GeneralMaster/relationship/TC_97_Put_Update Relationship Name.json"
		},
		{
			"type": "testcase",
			"file": "resources/testcases/GeneralMaster/relationship/TC_97_Put_Update Relationship Name.json"
		},
		{
			"type": "testcase",
			"file": "resources/testcases/GeneralMaster/relationship/TC_98_Put_Update Relationship status.json"
		},
		{
			"type": "testcase",
			"file": "resources/testcases/GeneralMaster/relationship/TC_99_Get_Search Relationship with Relationship name Brother.json"
		},
		{
			"type": "testcase",
			"file": "resources/testcases/GeneralMaster/relationship/TC_100_Get_Search Relationship with code as system generated with prefix.json"
		},
		{
			"type": "testcase",
			"file": "resources/testcases/GeneralMaster/relationship/TC_101_Get_Search Relationship with code as system generated without prefix.json"
		},
		{
			"type": "testcase",
			"file": "resources/testcases/GeneralMaster/relationship/TC_102_Get_Search Relationship with User defined code.json"
		},
		{
			"type": "testcase",
			"file": "resources/testcases/GeneralMaster/relationship/TC_103_Get_Search Relationship with InActive status.json"
		}


	]
}
