{
    "meta":{
	    "testCaseId": "test-Add new master with duplicate data in name field",
	    "entity"    : "ts",
	    "operation" : "post",
	    "date"      : "31-march-2020"
	},
	"data" :{
		"status": "ACTIVE",
		"systemDefine": true,
		"name": "genx2",
		"code": "Auto generated",
		"sectiontypeContainer": "Formdesignercontainer",
		"sectionType": "Systemdesignedcontainer",
		"soapType": "Plan"
	},

	"response": {
		"statusCode": 400,
		"message" : "the entity should noy be added ",
		"responseObject": {
		

		}
	}
}