{
    "meta":{
	    "testCaseId": "test-Add New Master With Answer Type As Yes or No",
	    "entity"    : "qm",
	    "operation" : "post",
	    "date"      : "31-march-2020"
	},
	"data" : {
		"answerType": "YESNO",
		"status": "ACTIVE",
		"code": "K_${TESTRUNEXECTIME}",
		"name": "K_${TESTRUNEXECTIME}",
		"pickList": "\"\""
	},


	"response": {
		"statusCode": 200,
		"message" : "The entity with answer type as yes or no received successfully",
		"responseObject": {
		

		}
	}
}