{
    "meta":{
	    "testCaseId": "test-Add New Master Without Add Values for Drop Down field",
	    "entity"    : "qm",
	    "operation" : "post",
	    "date"      : "31-march-2020"
	},
	"data" : {
		"answerType": "PICKLIST",
		"status": "ACTIVE",
		"code": "QAN-012",
		"pickList": "",
		"name": "patient previous picklists are needed as indeed"
	},


	"response": {
		"statusCode": 500,
		"message" : "The entity without picklists has not received successfully",
		"responseObject": {
		

		}
	}
}