{
    "meta":{
	    "testCaseId": "test-Update Answer Type field",
	    "entity"    : "qm",
	    "operation" : "put",
	    "date"      : "31-march-2020"
	},
	"data" : {
		"answerType": "TEXT",
		"pickList": "\"\"",
		"specialityId": "00000000-0000-0000-0000-000000000000",
		"statusString": "ACTIVE",
		"id": "e969a4b2-9f50-4551-ad78-6966f289c587",
		"name": "medication of patient needed on visit number",
		"status": "ACTIVE",
		"displayName": "medication of patient needed on visit number",
		"code": "qank-321",
		"tenantId": "60333984-86bb-47e0-910c-2edfd42500bd"
	},


	"response": {
		"statusCode": 200,
		"message" : "The entity with answer type as number received successfully",
		"responseObject": {
		

		}
	}
}