{
    "meta":{
	    "testCaseId": "test-Update User Defined Code field",
	    "entity"    : "qm",
	    "operation" : "put",
	    "date"      : "31-march-2020"
	},
	"data" : {
		"answerType": "TEXT",
		"pickList": "\"\"",
		"specialityId": "00000000-0000-0000-0000-000000000000",
		"statusString": "ACTIVE",
		"id": "3c6dffe9-de82-4e1a-9ad9-76c08a43ea13",
		"name": "patient medications are required",
		"status": "ACTIVE",
		"displayName": "patient medications are required",
		"code": "sank-210",
		"tenantId": "60333984-86bb-47e0-910c-2edfd42500bd"
	},


	"response": {
		"statusCode": 200,
		"message" : "The entity with answer type as number received successfully",
		"responseObject": {
		

		}
	}
}