{
  "meta": {
    "testCaseId": "test-Add Relationship with User Defined",
    "entity": "relationships",
    "operation": "post",
    "date": "27-March-2021"
  },
  "data": {
    "status": "ACTIVE",
    "relation": "RELATIONSHIP_${TESTRUNEXECTIME}",
    "code": "RELATIONSHIP_${TESTRUNEXECTIME}"
  },

  "response": {
    "statusCode": 200,
    "message": "The entity has been added successfully with user defined code",
    "responseObject": {

    }
  }
}