{
  "meta": {
    "testCaseId": "test-Add relationship  ame with more then 50 characters",
    "entity": "relationships",
    "operation": "post",
    "date": "27-March-2021"
  },
  "data": {
    "status": "ACTIVE",
    "relation": "Stephjkfrsccvbhgfreyiojgddsfvb njhjgrgdrerererererererererererere",
    "code": "Auto generated"
  },


  "response": {
    "statusCode": 400,
    "message": "The entity has not added. Name field max length more then 50 ",
    "responseObject": {

    }
  }
}