{
  "meta": {
    "testCaseId": "test-Update Relationship Name",
    "entity": "relationships",
    "operation": "post",
    "date": "30-March-2021"
  },
  "data": {
    "relation": "Brothers and Sisters",
    "statusString": "ACTIVE",
    "id": "a2709d93-8812-4e42-bd95-841c3db37ebf",
    "name": "Grandparents",
    "status": "ACTIVE",
    "displayName": "Grandparents",
    "code": "OM-2021-3-27-00001",
    "tenantId": "60333984-86bb-47e0-910c-2edfd42500bd"
  },

  "response": {
    "statusCode": 200,
    "message": "The entity has been added updated successfully with Relationship Name",
    "responseObject": {

    }
  }
}