{
  "meta": {
    "testCaseId": "test-Add Relationship Name with min length 2",
    "entity": "relationships",
    "operation": "post",
    "date": "27-March-2021"
  },
  "data": {
    "status": "ACTIVE",
    "relation": "RELATIONSHIP_${TESTRUNEXECTIME}",
    "code": "Auto generated"
  },


  "response": {
    "statusCode": 400,
    "message": "The entity has not added. Name min length should be 3",
    "responseObject": {

    }
  }
}