{
  "meta": {
    "testCaseId": "test-regstration-010",
    "entity": "regstration",
    "operation": "post",
    "date": "26-02-2021"
  },
  "data": {
"patregi": {
"code": "Auto generated",
"dob": "1995/02/25",
"firstName": "Simin",
"fromTime": "15:43",
"gender": "MALE",
"lastName": "bajaj",
"newborn": false,
"patientprefixId": "e0666e27-6600-4642-912c-cf7122baac4e",
"patienttypeId": "a5ca44af-803b-4d54-af0f-391045757674",
"registrationDate": "2021-03-19T15:43:00.000Z",
"registrationtypeId": "00000000-0000-0000-0000-000000000000",
"status": "ACTIVE",
"validTill": "2022-02-25T10:13:27.076Z"
},
"patientPersonalInfo": {
"maritalStatus": null,
"maritalStatusId": "00000000-0000-0000-0000-000000000000",
"nationality": null,
"nationalityId": "00000000-0000-0000-0000-000000000000",
"occupationId": "00000000-0000-0000-0000-000000000000",
"patientId": "51303a0d-185f-4c9f-b9f1-206e88fcd708",
"religion": null,
"religionId": "00000000-0000-0000-0000-000000000000"
},
"patientPhotographDetail": {},
"patientReferralDetails": {},
"patientSignatureDetail": {},
"patientInsuranceCardImage": {},
"patientPersonalIdentificationDetails": [],
"patientFingerPrintDetail": {},
"patientGuardianDetails": {
"guardianFirstName": "Simran",
"guardianLastName": "bajaj",
"guardianPrefixId": "e0666e27-6600-4642-912c-cf7122baac4e",
"guardianRelationshipSalutation": "0194d5ae-272b-4e0a-8c5f-331dc6a302d5"
},
"patientEmergencyContactDetails": {
"cityId": "00000000-0000-0000-0000-000000000000",
"contactType": "EmergencyDetail",
"countryId": "00000000-0000-0000-0000-000000000000",
"districtId": "00000000-0000-0000-0000-000000000000",
"stateId": "00000000-0000-0000-0000-000000000000"
},
"patientDeathDetail": {
"deceased": false
},
"patientContactDetail": {
"cityId": "00000000-0000-0000-0000-000000000000",
"contactType": "ContactDetail",
"countryId": "00000000-0000-0000-0000-000000000000",
"districtId": "00000000-0000-0000-0000-000000000000",
"stateId": "00000000-0000-0000-0000-000000000000"
},
"status": "ACTIVE"
 },
  "response": {
    "statusCode": 400,
    "message": "The entity has Not received. Without Registration Type. ",
    "responseObject": {

    }
  }
  
}