{
  "meta": {
    "testCaseId": "get-regstration-003",
    "entity": "regstration",
    "operation": "get",
    "date": "26-feb-2021"
  },
  "data": {
    "id":"bfe489bb-183f-44a8-898f-6f3cbed95d3e"
  },
  "response": {
    "statusCode": 200,
    "message": "The entity has been Get Successfully for VIP with Alias Name Patient Type. ",
    "responseObject": {


    }
  }
}