{
    "meta":{
	    "testCaseId": "test-Update Stage Type field",
	    "entity"    : "diagnosisstage",
	    "operation" : "put",
	    "date"      : "31-march-2020"
	},
	"data" :{
		"statusString": "ACTIVE",
		"stageType": "FINALDIAGNOSIS",
		"id": "586aed7a-e57c-4f39-8ab3-23a3d05b9d50",
		"name": "WATAR DIAGNOSIS",
		"status": "ACTIVE",
		"displayName": "WATAR DIAGNOSIS",
		"code": "NIK-094567",
		"tenantId": "60333984-86bb-47e0-910c-2edfd42500bd"
	},

	"response": {
		"statusCode": 200,
		"message" : "The entity Update Stage Type field data has been received successfully",
		"responseObject": {
		

		}
	}
}