{
    "meta":{
	    "testCaseId": "test-Diagnosis Stage Master  with User Defined Code",
	    "entity"    : "diagnosisstage",
	    "operation" : "post",
	    "date"      : "31-march-2020"
	},
	"data" :{
		"stageType": "FINALDIAGNOSIS",
		"status": "ACTIVE",
		"name": "K_${TESTRUNEXECTIME}",
		"code": "K_${TESTRUNEXECTIME}"
	},

	"response": {
		"statusCode": 200,
		"message" : "The entity with with User Defined Code data has been received successfully",
		"responseObject": {
		

		}
	}
}