{
  "meta": {
    "testCaseId": "test-Search Occupation with occupation Name Lab Assistant",
    "entity": "occupationmasters",
    "operation": "get",
    "date": "27-Mar-2020"
  },
  "data": {
    "id": "715e1cfc-bdaf-4fe6-bf50-c4bb4926ca37"
  },
  "response": {
    "statusCode": 200,
    "message": "The entity has been received successfully with Occupation name Lab Assistant ",
    "responseObject": {
      "statusString": "ACTIVE",
      "id": "715e1cfc-bdaf-4fe6-bf50-c4bb4926ca37",
      "name": "Lab Assistant ",
      "status": "ACTIVE",
      "displayName": "Lab Assistant ",
      "code": "OM-2021-3-27-00001",
      "tenantId": "60333984-86bb-47e0-910c-2edfd42500bd"
    }
    }
  }


