{
  "meta": {
    "testCaseId": "test-Add Chief Complaints or Problems without Speciality field data- Non Mandatory field",
    "entity": "chiefcomplaints",
    "operation": "post",
    "date": "10-Apr-2021"
  },
  "data": {
    "terminology": "a45ab0ac-1c4c-4a89-aac2-31395edcaea8",
    "status": "ACTIVE",
    "name": "CHIEF_${TESTRUNEXECTIME}",
    "terminologyCode": "hi1/2-201",
    "code": "Auto generated",
    "speciality": "00000000-0000-0000-0000-000000000000"
  },



  "response": {
    "statusCode": 200,
    "message": "The entity has been added successfully without Speciality",
    "responseObject": {

    }
  }
}