{
  "meta": {
    "testCaseId": "test-Update Chief Complaints or Problems Speciality ",
    "entity": "chiefcomplaints",
    "operation": "put",
    "date": "10-Apr-2021"
  },
  "data": {
    "statusString": "ACTIVE",
    "speciality": "f0a91a2f-2f90-4980-8ecf-458193720793",
    "terminology": "a45ab0ac-1c4c-4a89-aac2-31395edcaea8",
    "terminologyCode": "hi1/2-201",
    "id": "da199484-2eeb-48fa-b34c-e2ac04ec03da",
    "name": "Complain APR 1022",
    "status": "ACTIVE",
    "displayName": "Complain APR 102",
    "code": "MN-2021-4-10-00003",
    "tenantId": "60333984-86bb-47e0-910c-2edfd42500bd"
  },

  "response": {
    "statusCode": 200,
    "message": "The entity has been updated successfully with Speciality",
    "responseObject": {

    }
  }
}