{
  "meta": {
    "testCaseId": "test-Add State with Auto Generated without Prefix",
    "entity": "states",
    "operation": "post",
    "date": "13-March-2021"
  },
  "data":{
    "countryID": "489944c1-d47d-4bc1-922e-d013932309c9",
    "stateType": "IsState",
    "status": "ACTIVE",
    "stateName": "STATE_${TESTRUNEXECTIME}",
    "stateShortName": "Tam",
    "code": "Auto generated"
  },

  "response": {
    "statusCode": 200,
    "message": "The entity has been added successfully",
    "responseObject": {

    }
  }
}