{
    "meta":{
	    "testCaseId": "test-Allergen Matser with all mandatory fields",
	    "entity"    : "allergenmaster",
	    "operation" : "post",
	    "date"      : "31-march-2020"
	},
	"data" :{

	"allergyCategory": "62750af6-b19b-45ab-ba58-cc7c16cb5bc8",
	"terminology": "bb122fc6-3073-4abc-a32a-00d024d6a4bc",
	"status": "ACTIVE",
	"name": "K_${TESTRUNEXECTIME}",
	"terminologyCode": "OM-2021-2-00001",
	"code": "Auto generated"


	},

	"response": {
		"statusCode": 200,
		"message" : "The entity with all mandatory fields data has been received successfully",
		"responseObject": {
		

		}
	}
}