{
    "meta":{
	    "testCaseId": "test-Update Minimum Volume UOM",
	    "entity"    : "investigation",
	    "operation" : "put",
	    "date"      : "31-march-2020"
	},
	"data" :{
		"srNo": 0,
		"sampleCollectionType": "Multiple",
		"serviceCode": "b18462d1-2424-4daa-95a3-be4c64ee8f6d",
		"shortName": null,
		"specialtyCode": "f0a91a2f-2f90-4980-8ecf-458193720793",
		"investigationServiceTypeCode": "00000000-0000-0000-0000-000000000000",
		"pretestRequirementsForPatients": null,
		"clinicalSignificance": null,
		"phlebotomistInstructions": null,
		"technicianiInstructions": null,
		"preparationTime": 0,
		"preparationTimeUom": "00000000-0000-0000-0000-000000000000",
		"maxTimeRequired": 0,
		"maxTimeRequiredUom": "00000000-0000-0000-0000-000000000000",
		"investigationResultsFormulaRequired": false,
		"deltaCheckRequired": false,
		"deltaLimitType": "00000000-0000-0000-0000-000000000000",
		"deltaLimitValue": 0,
		"deltaPeriod": 0,
		"deltaPeriodUom": "00000000-0000-0000-0000-000000000000",
		"investigationSpecimenSamples": [
			{
				"id": "069545d6-619a-4e65-ad8b-21123e4f81ed",
				"investigationCode": "92dfb575-870e-4277-8c8c-0caef8f4f98d",
				"sampleType": "15d8d50d-b9f3-4b19-8789-7f4cf223f041",
				"containerType": "65fbf685-44d4-4d5a-8842-4332999cdadb",
				"volumeRequired": 7,
				"volumeUom": "64ecbbde-3cf7-475c-96ca-27eaba44c13a",
				"minimumVolume": 3,
				"minimumVolumeUom": "11a937d0-0ebb-4ad3-ab54-8b764fb0602a",
				"subSamples": false,
				"freeTextSampleType": null,
				"containerTypes": null,
				"specimen": null,
				"investigationSubSpecimenSamples": [],
				"containerTypeName": "bhyt0",
				"volumeUomName": "cases",
				"minimumVolumeUomName": "litres",
				"sampleTypeName": "A Test"
			}
		],
		"investigationHierarchies": [],
		"id": "92dfb575-870e-4277-8c8c-0caef8f4f98d",
		"name": "saddsa127",
		"status": "ACTIVE",
		"displayName": "saddsa127",
		"code": "QA/2021-4-1/00170",
		"tenantId": "60333984-86bb-47e0-910c-2edfd42500bd"
	},
	"response": {
		"statusCode": 200,
		"message" : "the entity Minimum Volume UOM field has been updated successfully",
		"responseObject": {
		

		}
	}
}