{
    "meta":{
	    "testCaseId": "test-Add Investigation Without Name field",
	    "entity"    : "investigation",
	    "operation" : "post",
	    "date"      : "31-march-2020"
	},
	"data" :{
		"status": "ACTIVE",
		"investigationSpecimenSamples": [
			{
				"subSamples": false,
				"iseditmode": false,
				"volumeRequired": 7,
				"minimumVolume": 3,
				"containerType": "65fbf685-44d4-4d5a-8842-4332999cdadb",
				"sampleType": "15d8d50d-b9f3-4b19-8789-7f4cf223f041",
				"volumeUom": "64ecbbde-3cf7-475c-96ca-27eaba44c13a",
				"minimumVolumeUom": "11a937d0-0ebb-4ad3-ab54-8b764fb0602a",
				"investigationSubSpecimenSamples": [],
				"containerTypeName": "bhyt0",
				"volumeUomName": "cases",
				"minimumVolumeUomName": "mile",
				"sampleTypeName": "A Test"
			}
		],
		"sampleCollectionType": "Multiple",
		"code": "QA/2021-4-1/00004",
		"name": "",
		"serviceCode": "b18462d1-2424-4daa-95a3-be4c64ee8f6d",
		"investigationServiceTypeCode": "a76ddd61-3f35-4a40-8eab-eb74fe265dd5",
		"specialtyCode": "f0a91a2f-2f90-4980-8ecf-458193720793",
		"preparationTimeUom": "00000000-0000-0000-0000-000000000000"
	},
	"response": {
		"statusCode": 400,
		"message" : "the entity without name field has not received successfully ",
		"responseObject": {
		

		}
	}
}