{
    "meta":{
	    "testCaseId": "test-Add New Master With Vendor Type as  Service Provider",
	    "entity"    : "mvs",
	    "operation" : "post",
	    "date"      : "31-march-2020"
	},
	"data" :{
		"status": "ACTIVE",
		"registrationStatus": "REGISTERED",
		"vendorBankDetail": {},
		"vendorDistributer": [],
		"vendorRegistration": [
			{
				"srNo": 1,
				"registrationType": "CST",
				"registrationNumber": "34567yuio",
				"registrationDate": "2021-03-01",
				"registrationAuthority": "dferty",
				"rowIdentifier": "281ac989-ba12-4768-996e-960d578c04e1"
			}
		],
		"manufacturerVendorContactDetails": {
			"addressLine1": "ui-09",
			"zipcode": "789654",
			"country": "489944c1-d47d-4bc1-922e-d013932309c9",
			"state": "43c58f74-d036-4bd2-98f2-b166d1772943",
			"city": "e94959d8-f31d-4f1f-9035-74b75f2e73e9"
		},
		"name": "K_${TESTRUNEXECTIME}",
		"code": "Auto generated",
		"vendorType": "SERVICEPROVIDER"
	},


	"response": {
		"statusCode": 200,
		"message" : "The entity with vendor type as service provider has been received successfully ",
		"responseObject": {
		

		}
	}
}