{
    "meta":{
	    "testCaseId": "test-Update Vendor Type field",
	    "entity"    : "mvs",
	    "operation" : "put",
	    "date"      : "31-march-2020"
	},
	"data" :{
		"vendorType": "DISTRIBUTOR",
		"accountCode": "00000000-0000-0000-0000-000000000000",
		"registrationStatus": "NOTREGISTERED",
		"pan": null,
		"exportLicenseNumber": null,
		"statusString": "ACTIVE",
		"manufacturerVendorContactDetails": {
			"id": "77bd157b-53a4-48a1-97ee-e4fb69b29b61",
			"manufacturervendorCode": "04c8b246-9785-4ba6-9125-04041be44bea",
			"postBoxNo": null,
			"addressLine1": "hno90",
			"addressLine2": null,
			"city": "4b862864-7d70-48eb-be50-e11e8bccb35b",
			"state": "43c58f74-d036-4bd2-98f2-b166d1772943",
			"country": "489944c1-d47d-4bc1-922e-d013932309c9",
			"zipcode": "456321",
			"emailId": null,
			"phoneNumber1": null,
			"phoneNumber2": null,
			"faxNumber": null
		},
		"vendorBankDetail": {
			"id": "b975dc6e-6b2a-43a0-914c-92c4c23f9e8d",
			"manufacturervendorCode": "04c8b246-9785-4ba6-9125-04041be44bea",
			"bankAccountNumber": null,
			"accountType": "CURRENTACCOUNT",
			"bankName": "00000000-0000-0000-0000-000000000000",
			"ifscCode": null
		},
		"vendorDistributer": [],
		"vendorRegistration": [],
		"id": "04c8b246-9785-4ba6-9125-04041be44bea",
		"name": "man09876",
		"status": "ACTIVE",
		"displayName": "man09876",
		"code": "manu890",
		"tenantId": "60333984-86bb-47e0-910c-2edfd42500bd"
	},


	"response": {
		"statusCode": 200,
		"message" : "The entity vendor type field has been updated successfully ",
		"responseObject": {
		

		}
	}
}