{
  "meta": {
    "testCaseId": "test-Add Districts with Auto generated without Prefix",
    "entity": "districts",
    "operation": "post",
    "date": "15-March-2021"
  },
  "data":{
    "stateID": "43c58f74-d036-4bd2-98f2-b166d1772943",
    "countryID": "489944c1-d47d-4bc1-922e-d013932309c9",
    "status": "ACTIVE",
    "districtName": "DIST_${TESTRUNEXECTIME}",
    "code": "Auto generated"
  },
  "response": {
    "statusCode": 200,
    "message": "The entity has been added successfully",
    "responseObject": {

    }
  }
}