{
  "meta": {
    "testCaseId": "test-patientprefix",
    "entity": "severity",
    "operation": "post",
    "date": "04-March-2021"
  },
  "data": {
    "status": "ACTIVE",
    "name": "assasa1",
    "code": "Auto generated"
  },
  "response": {
    "statusCode": 400,
    "message": "The entity has Not received. With Duplicate Name. ",
    "responseObject": {

    }
  }
}