{
  "meta": {
    "testCaseId": "test-Update Country Sort Name",
    "entity": "countrys",
    "operation": "put",
    "date": "13-March-2021"
  },
  "data": {
    "countryName": "Latvia uu",
    "shortName": "Latvia New",
    "telephoneCode": "+45",
    "statusString": "ACTIVE",
    "id": "467cd58d-2353-4102-b99e-5bf8c766cdce",
    "name": "Latvia",
    "status": "ACTIVE",
    "displayName": "Latvia",
    "code": "OM-2021-3-13-00003",
    "tenantId": "60333984-86bb-47e0-910c-2edfd42500bd"
  },
  "response": {
    "statusCode": 200,
    "message": "The entity has been updated successfully",
    "responseObject": {

    }
  }
}