{
  "meta": {
    "testCaseId": "test-Add Country with Auto Generated without Prefix",
    "entity": "countrys",
    "operation": "post",
    "date": "13-March-2021"
  },
  "data":{
    "status": "ACTIVE",
    "countryName": "COUNTRY_${TESTRUNEXECTIME}",
    "shortName": "Pulau",
    "telephoneCode": "+45",
    "code": "Auto Generated"
  },
  "response": {
    "statusCode": 200,
    "message": "The entity has been added successfully",
    "responseObject": {

    }
  }
}