{
  "meta": {
    "testCaseId": "test-Add Country without user defined code- Mandatory field",
    "entity": "countrys",
    "operation": "post",
    "date": "11-March-2021"
  },
  "data":{
    "status": "ACTIVE",
    "countryName": "Fijiji",
    "shortName": "Fiji",
    "telephoneCode": "+34",
    "code": ""
  },
  "response": {
    "statusCode": 400,
    "message": "The entity has not added",
    "responseObject": {

    }
  }
}