{
  "meta": {
    "testCaseId": "test-Add Employee speciality without Result Entry Type-Non Mandatory field",
    "entity": "employeespecialitys",
    "operation": "post",
    "date": "11-March-2021"
  },
  "data":{
    "serviceGroup": "56ef7db0-e1b6-4eee-9ec1-284b20225ef9",
    "resultEntryType": "",
    "status": "ACTIVE",
    "name": "SPECIALITY_${TESTRUNEXECTIME}",
    "code": "Auto generated"
  },

  "response": {
    "statusCode": 200,
    "message": "The entity has been added successfully",
    "responseObject": {

    }
  }
}