{
  "meta": {
    "testCaseId": "test-Update Employee Speciality Status",
    "entity": "employeespecialitys",
    "operation": "put",
    "date": "11-March-2021"
  },
  "data":{
    "serviceGroup": "fbf0ee1f-ff70-4ab3-9c70-e313e601a95f",
    "resultEntryType": "GENERALFLOW",
    "statusString": "ACTIVE",
    "id": "65549adf-8ccc-4da6-a9fe-cb6e3874119c",
    "name": "Very Very Good",
    "status": "INACTIVE",
    "displayName": "Good",
    "code": "OM2021-3-1100005",
    "tenantId": "60333984-86bb-47e0-910c-2edfd42500bd"
  },

  "response": {
    "statusCode": 200,
    "message": "The entity has been updated successfully",
    "responseObject": {

    }
  }
}