{
    "meta":{
	    "testCaseId": "test-Add new master with user defined code",
	    "entity"    : "uommasters",
	    "operation" : "post",
	    "date"      : "31-march-2020"
	},
	"data" :{
		"uomTypeId": "LABORATORYUOM",
		"noofdecimal": 3,
		"isuomconversionchecked": true,
		"uomMasterConversion": {
			"fromUomId": "73611dec-5061-4ad4-a897-2065fa31082e",
			"toUomId": "98338038-2ffc-4d8b-9e06-0bb4e7873d53",
			"conversionformula": "x=y"
		},
		"status": "ACTIVE",
		"name": "K_${TESTRUNEXECTIME}",
		"uomCodePlural": "li12",
		"code": "K_${TESTRUNEXECTIME}",
		"isdefaultchecked": true,
		"isdefault": "true",
		"isuomconversion": "true"
	},


	"response": {
		"statusCode": 200,
		"message" : "The entity with user defined code has been received successfully",
		"responseObject": {
		

		}
	}
}