{
    "meta":{
	    "testCaseId": "test-Update user defined code field",
	    "entity"    : "uommasters",
	    "operation" : "put",
	    "date"      : "31-march-2020"
	},
	"data" :{
		"uomTypeId": "AGEDURATION",
		"uomCodePlural": "01",
		"isdefault": "true",
		"noofdecimal": 1,
		"isuomconversion": "false",
		"statusString": "ACTIVE",
		"uomMasterConversion": {
			"fromUomId": "a88d7434-3fa8-4796-afe5-573318478237",
			"toUomId": "00000000-0000-0000-0000-000000000000",
			"conversionformula": null,
			"fromuomvalue": 0,
			"touomvalue": 0,
			"id": "3ab259ab-8b93-4a59-a78d-94cff27c1dbd"
		},
		"id": "a88d7434-3fa8-4796-afe5-573318478237",
		"name": "Prakashccc",
		"status": "ACTIVE",
		"displayName": "Prakashccc",
		"code": "praka-012",
		"tenantId": "60333984-86bb-47e0-910c-2edfd42500bd",
		"isdefaultchecked": true,
		"isuomconversionchecked": false
	},


	"response": {
		"statusCode": 200,
		"message" : "The entity user defined code field has been UPDATED successfully",
		"responseObject": {
		

		}
	}
}