{
  "meta": {
    "testCaseId": "test-Without Mandatory field Facility Type",
    "entity": "facility",
    "operation": "post",
    "date": "04-March-2021"
  },
  "data":{
    "facilityTypeId": null,
    "parentLocationId": "00000000-0000-0000-0000-000000000000",
    "status": "ACTIVE",
    "facilityAffiliationOrgDetail": {
      "cityId": "",
      "stateId": "",
      "countryId": ""
    },
    "facilityAddress": {
      "addressLine1": "C G ROAD",
      "zipcode": "123456",
      "emailId": "charmy@yopmail.com",
      "phoneNumber1": "08238934103",
      "addressLine2": "C G ROD",
      "country": "489944c1-d47d-4bc1-922e-d013932309c9",
      "state": "43c58f74-d036-4bd2-98f2-b166d1772943",
      "city": "7bb8743c-cff4-4fbc-9345-ea31f3296aec"
    },
    "facilityContactPersonDetail": {},
    "name": "Mar 8000",
    "code": "Auto generated"

  },
  "response": {
    "statusCode": 400,
    "message": "The entity should not add into list",
    "responseObject": {

    }
  }
}