{
    "meta":{
	    "testCaseId": "test-Add New Master With Drug Orders",
	    "entity"    : "patientorder",
	    "operation" : "post",
	    "date"      : "31-march-2020"
	},
	"data" : {
		"visitNumberId": "YIUYIU",
		"status": "ACTIVE",
		"orderStatus": "Signed",
		"imagePath": {
			"changingThisBreaksApplicationSecurity": "./assets/images/avatars/female-shape.png"
		},
		"orderDate": "2021-05-04",
		"orderTime": "12:00",
		"filterSearchData": "",
		"motherCrNo": {
			"id": "07eb3c67-dfbb-4a86-803f-4c070c2bbcab",
			"name": "Jisha pATEL (QA/2021-4-9/00001)",
			"code": "QA/2021-4-9/00001"
		},
		"visitTypeId": "Out Patient",
		"firstName": "Jisha",
		"lastName": "pATEL",
		"middleName": "s",
		"displayName": "paKCnPRe8O9Rxq2aZQJQjrDcZ8AVaaav8VI12pn1Gbw= RgPDRRYvyz3BZ8XgzOj063efitWyVrIQ7QRN5O5j3ww=",
		"dob": "09-04-1985 (36 Years)",
		"gender": "Female",
		"mobileNo": "8320266327",
		"patientId": "07eb3c67-dfbb-4a86-803f-4c070c2bbcab",
		"orderdetails": [
			{
				"moduleName": "Drugs",
				"moduleId": "7e3d94cf-ae6c-4c60-a4ae-fcae8746e634",
				"otherDetail": "{\"startDateAndTime\":\"2021-05-04T05:04:31.667Z\",\"displayMedication\":\"Detail for Tab. Dolo   125  (  drug1 125 mg )\",\"intakeUnit\":1,\"durationDays\":0.1,\"totalQuantity\":0.18000000000000002,\"drugForm\":\"ad6df070-3515-49af-ba89-ba0ef4c15cf6\",\"strengthWithuom\":\" 125\",\"routeOfAdministration\":\"0d428cf4-f64d-427b-a2ad-32b93fdfb4a6\",\"frequency\":\"9a9dedd6-0c3b-459b-a687-f507cd9fd0a8\",\"duration\":\"7f3773d5-9a3c-4d58-8331-00d5077fedca\",\"directions\":\"9168d61d-b3f0-489e-8a78-53f715cb6486\",\"freeTextSig\":\" Take cases Tablet Administration 1.5 times a day  20ml a day  for 1dose\",\"amount\":null,\"priority\":\"ROUTINE\"}",
				"taperingDose": "{}",
				"deleteflag": 0
			}
		],
		"orderAmount": null,
		"doctorId": "0226b37a-74a6-4334-92a1-99189fa08c7a",
		"age": "36 Years",
		"facilityId": "6a8ae575-8ec9-420a-aea3-519d60789e85",
		"appointmentId": "75336b06-d699-41a9-83cc-b7fa4dbc760c",
		"appointmentDate": "09/04/2021",
		"doctorName": "Nikita  Patel",
		"patientcode": "QA/2021-4-9/00001",
		"address": ""
	},


	"response": {
		"statusCode": 200,
		"message" : "The entity with drug orders has been received successfully",
		"responseObject": {
		

		}
	}
}