{
    "meta":{
	    "testCaseId": "test-Add New Master Without IV Fluids Strength",
	    "entity"    : "patientorder",
	    "operation" : "post",
	    "date"      : "31-march-2020"
	},
	"data" : {
		"visitNumberId": "qa-01298",
		"status": "ACTIVE",
		"orderStatus": "Signed",
		"imagePath": {
			"changingThisBreaksApplicationSecurity": "./assets/images/avatars/female-shape.png"
		},
		"orderDate": "2021-05-04",
		"orderTime": "12:00",
		"filterSearchData": "",
		"motherCrNo": "Jeril Mekon (QA/2021-5-3/00005)",
		"visitTypeId": "Out Patient",
		"firstName": "Jeril",
		"lastName": "Mekon",
		"middleName": "D",
		"displayName": "xnbx5W9H+NPpQLolf7AlSLTscLZ3T8F9GKkogVnwduk= ZxsPkxxmGH4+qN0bq1hj/YIpcGrndbxEaXtltcMZSLs=",
		"dob": "01-01-1988 (33 Years)",
		"gender": "Female",
		"mobileNo": null,
		"patientId": "72611d0b-3de7-42f8-b23a-4edbc73fa2c0",
		"orderdetails": [
			{
				"moduleName": "IV Fluids",
				"moduleId": "77e9612f-958f-44be-8008-bc5226b606fd",
				"otherDetail": "{\"startDateAndTime\":\"2021-05-04T08:50:33.928Z\",\"displayMedication\":\"Detail for Tab. cough syrup#$%%^^^   120  (  drug1 120 mg )\",\"intakeUnit\":1,\"durationDays\":2,\"totalQuantity\":3.6,\"drugForm\":\"ad6df070-3515-49af-ba89-ba0ef4c15cf6\",\"strengthWithuom\":\"\",\"routeOfAdministration\":\"1cb7ffa0-fc86-4456-a1c0-13320e60ea34\",\"frequency\":\"9a9dedd6-0c3b-459b-a687-f507cd9fd0a8\",\"duration\":\"38df64fa-8fa1-4364-8898-b93284d68d72\",\"directions\":\"017fe23e-57a8-48bf-b61b-65c94ac1c243\",\"freeTextSig\":\" Take decalitres Tablet dw 1.5 times a day  1.23 times in a day  for 2dose\",\"amount\":null,\"priority\":\"ROUTINE\"}",
				"taperingDose": "{}",
				"deleteflag": 0
			}
		],
		"orderAmount": null,
		"doctorId": "37dac778-50e3-48c1-9024-c43c5be08eed",
		"patientcode": "QA/2021-5-3/00005",
		"address": "",
		"facilityId": "152acb58-25d6-4c59-bdc8-dd07ee80fe20",
		"appointmentId": "2277cc2f-3eae-4305-8c61-ef580dd5ddaf",
		"appointmentDate": "04/05/2021",
		"doctorName": "Jalpa  Patel"
	},


	"response": {
		"statusCode": 400,
		"message" : "The entity with IV Fluids orders has been received successfully",
		"responseObject": {
		

		}
	}
}