{
    "meta":{
	    "testCaseId": "test-Add New Master Without Drug Strength with uom",
	    "entity"    : "patientorder",
	    "operation" : "post",
	    "date"      : "31-march-2020"
	},
	"data" : {
		"visitNumberId": "0123456789",
		"status": "ACTIVE",
		"orderStatus": "Signed",
		"imagePath": {
			"changingThisBreaksApplicationSecurity": "./assets/images/avatars/man-shape.png"
		},
		"orderDate": "2021-05-04",
		"orderTime": "12:00",
		"filterSearchData": "",
		"motherCrNo": "JACK MAA (QA/2021-4-21/00001)",
		"visitTypeId": "Out Patient",
		"firstName": "JACK",
		"lastName": "MAA",
		"middleName": null,
		"displayName": "EI0dH0Trj5KRPlx6/FH6HKF8gN2z9D++9CXq4sX1GFM= eX1B6W3hJdguQ4InxnNnsg==",
		"dob": "01-01-1979 (42 Years)",
		"gender": "Male",
		"mobileNo": null,
		"patientId": "5e770165-d7a8-459d-9a5f-828143e659d8",
		"orderdetails": [
			{
				"moduleName": "Drugs",
				"moduleId": "0ea0f019-931f-4535-9f19-c3856e886d74",
				"otherDetail": "{\"startDateAndTime\":\"2021-05-04T06:22:49.122Z\",\"displayMedication\":\"Detail for Tab. Dolo   125  (  drug1 125 mg )\",\"intakeUnit\":1,\"durationDays\":1.2,\"totalQuantity\":0.36,\"drugForm\":\"ad6df070-3515-49af-ba89-ba0ef4c15cf6\",\"strengthWithuom\":\"\",\"routeOfAdministration\":\"0d428cf4-f64d-427b-a2ad-32b93fdfb4a6\",\"frequency\":\"4fbb80fb-40b2-4c62-8b0c-b5282575075d\",\"duration\":\"657a96e2-2b58-4a58-a262-014096d357cf\",\"directions\":\"0749228b-9eaf-4ae1-9fcf-462870004f6d\",\"freeTextSig\":\" Take cases Tablet Administration 0.2 times a day  0.11 times a day for 1 time in a day \",\"amount\":null,\"priority\":\"ROUTINE\"}",
				"taperingDose": "{}",
				"deleteflag": 0
			}
		],
		"orderAmount": null,
		"doctorId": "aa4c0a0f-559f-4be5-bd16-a0d0a9b90258",
		"facilityId": "8c6593f8-0c14-48cd-924f-137f1292d109",
		"appointmentId": "074bc62e-f79a-40e6-a706-84cdc000e9f5",
		"appointmentDate": "21/04/2021",
		"doctorName": "Monal  Shah",
		"patientcode": "QA/2021-4-21/00001",
		"address": ""
	},
	"response": {
		"statusCode": 400,
		"message" : "The entity with consumables orders has been received successfully",
		"responseObject": {
		

		}
	}
}