{
  "meta":{
    "testCaseId": "test-drugform-002",
    "entity"    : "drugform",
    "operation" : "post",
    "date"      : "31-march-2020"
  },
  "data" : {
    "status": "ACTIVE",
    "orderQuantityCalculation": true,
    "displayName": null,
    "code": "Auto generated"
  },
  "response":{
    "statusCode": 400,
    "message" : "The entity has Not received. Without Mandatory Field",
    "responseObject": {

    }
  }
}