{
  "meta":{
    "testCaseId": "test-drugform-002",
    "entity"    : "drugform",
    "operation" : "post",
    "date"      : "31-march-2020"
  },
  "data" : {
    "status": "ACTIVE",
    "orderQuantityCalculation": true,
    "displayName": "A_${TESTRUNEXECTIME}",
    "code": "Auto generated"
  },
  "response":{
    "statusCode": 200,
    "message" : "The entity has been received successfully With Min Length",
    "responseObject": {

    }
  }
}