{
  "meta": {
    "testCaseId": "test-Add Department without Facility- Mandatory field",
    "entity": "departments",
    "operation": "post",
    "date": "23-March-2021"
  },
  "data": {
    "facilityId": "00000000-0000-0000-0000-000000000000",
    "type": "CLINICAL",
    "locationId": "29482511-876a-4a1b-a043-38dc184aea11",
    "status": "ACTIVE",
    "code": "Auto generated",
    "departmentName": "General ward"
  },


  "response": {
    "statusCode": 400,
    "message": "The entity has not added- facilityId can not be blank",
    "responseObject": {

    }
  }
}