{
  "meta":{
    "testCaseId": "test-ChangePassword-002",
    "entity"    : "password",
    "operation" : "post",
    "date"      : "31-march-2020"
  },
  "data" : {
    "currentPassword": "Jack@Jack$1111",
    "newPassword": "Jack@Jack$123456789",
    "confirmPassword": "Jack@Jack$123456789"
  },
  "response":{
    "statusCode": 200,
    "message" : "The entity has been received successfully With Min Char Setting",
    "responseObject": {

    }
  }
}