{
  "meta": {
    "testCaseId": "test-servicemaster-002",
    "entity": "servicemaster",
    "operation": "put",
    "date": "10-december-2020"
  },
  "data": {
    "serviceGroupId": "a1ee71de-7c6b-4935-8a70-62f8197c4fcf",
    "serviceGruop": null,
    "serviceSynonymName": null,
    "serviceTypeId": "8dbcec83-449d-480f-b39f-c38c1d41924f",
    "serviceType": null,
    "serviceName": "zapakm1",
    "type": "service",
    "createdAt": "2021-03-31T23:53:03.059585",
    "serviceInformation": {
      "serviceId": "2f718a40-e7a3-495b-8f1d-a586694065e2",
      "serviceCategoryId": "00000000-0000-0000-0000-000000000000",
      "serviceCategory": null,
      "applicableGender": "MALE",
      "applicableVisitTypeId": "78e94d9c-3013-46df-9000-aa96c54280d9",
      "serviceOpVisitTypeId": null,
      "applicableVisitType": "Both (OP & IP)",
      "estimatedTimeToPerform": 0,
      "bloodComponentId": "00000000-0000-0000-0000-000000000000",
      "bloodComponent": null,
      "isLimitedPeriodService": false,
      "fromDateAndTime": null,
      "toDateAndTime": null,
      "isAssociatedWithOthers": false,
      "associatedServiceId": "00000000-0000-0000-0000-000000000000",
      "serviceDescription": null,
      "specialInstructions": null,
      "serviceMandatoryQuestion": null,
      "serviceIds": "[{\"id\":\"CHARGEABLE\",\"displayName\":\"Chargeable\"},{\"id\":\"DEFAULTRENDERED\",\"displayName\":\"Default Rendered\"}]",
      "fromTime": "00:00:00",
      "toTime": "00:00:00",
      "id": "89b32836-fb1c-4701-8278-d9c114f7ead6",
      "name": null,
      "status": null,
      "displayName": null,
      "code": null,
      "tenantId": "60333984-86bb-47e0-910c-2edfd42500bd"
    },
    "serviceTariff": {
      "serviceGroupId": "00000000-0000-0000-0000-000000000000",
      "serviceId": "2f718a40-e7a3-495b-8f1d-a586694065e2",
      "tariffFacilityId": "ab867bba-7c5b-4c21-a8a6-356ac54ff28c",
      "tariffFacility": null,
      "baseCurrencyId": "5c08783a-67bf-11eb-9270-5aa9a51b4c6e",
      "tariffStartDate": "2021-01-01T00:00:00",
      "tariffStartTime": "15:25:00",
      "tariffEndTime": "14:24:00",
      "tariffEndDate": "2021-03-03T00:00:00",
      "standardTariff": 200.25,
      "depositAmount": 0,
      "securityAmount": 0,
      "isDeffForExtPatient": false,
      "extPatientTariff": 0,
      "isFinancialTariff": false,
      "isOrgTariff": false,
      "isOrgFinTariff": false,
      "isSurgeonTariff": false,
      "id": "50b6dbd2-1064-4346-8baa-41ee6cf75568",
      "name": null,
      "status": null,
      "displayName": null,
      "code": null,
      "tenantId": "00000000-0000-0000-0000-000000000000"
    },
    "serviceAdditionalDocuments": {
      "serviceId": "2f718a40-e7a3-495b-8f1d-a586694065e2",
      "instructionSheetNo": null,
      "documentation": null,
      "webLink": null,
      "inactivationDate": "0001-01-01T00:00:00",
      "inactivationFromDateTime": "0001-01-01T00:00:00",
      "inactivationFromTime": "00:00:00",
      "inactivationById": null,
      "inactivationRemarks": null,
      "id": "de7a2e70-0b26-4d66-a8b1-090d9c85a22b"
    },
    "serviceEquipmentDetails": [],
    "serviceMandatoryQuestion": [],
    "servicePerformingLocations": [],
    "serviceRequisitionRestrictions": {
      "serviceId": "2f718a40-e7a3-495b-8f1d-a586694065e2",
      "serviceName": "zapakm1",
      "restrictionOnEmployeeType": false,
      "employeeTypeId": null,
      "employeeType": null,
      "restrictionOnEmployeeLocation": false,
      "restrictionOnEmployeeStatus": false,
      "statusIds": null,
      "serviceRequisitionRestrictionDetail": [],
      "id": "7aea4973-bd92-4cdc-9c48-05edd6328519",
      "name": null,
      "status": null,
      "displayName": null,
      "code": null,
      "tenantId": "60333984-86bb-47e0-910c-2edfd42500bd"
    },
    "serviceInformationSetting": {
      "serviceId": "2f718a40-e7a3-495b-8f1d-a586694065e2",
      "appointmentRequired": false,
      "appointmentRestrictionsId": "00000000-0000-0000-0000-000000000000",
      "consentRequired": false,
      "consentFormId": "00000000-0000-0000-0000-000000000000",
      "consentForm": null,
      "isPerformedOnSpecificDays": true,
      "weekDaysList": "[\"Sunday\"]",
      "reorderDuration": 0,
      "durationUomId": "00000000-0000-0000-0000-000000000000",
      "durationUom": null,
      "id": "f0e3f7f0-b964-42f8-b040-0c7f333d94d5"
    },
    "serviceInformationConfigSetting": {
      "serviceId": "2f718a40-e7a3-495b-8f1d-a586694065e2",
      "configId": "00000000-0000-0000-0000-000000000000",
      "configValue": false,
      "id": "60bc2cc3-a01b-4525-8535-f23e96cbbca7"
    },
    "serviceTerminologyArea": [],
    "serviceGroupRelation": {
      "serviceId": "2f718a40-e7a3-495b-8f1d-a586694065e2",
      "serviceGroupId": "00000000-0000-0000-0000-000000000000"
    },
    "id": "2f718a40-e7a3-495b-8f1d-a586694065e2",
    "name": "zapakm1",
    "status": "ACTIVE",
    "displayName": "zapakm1",
    "code": "QA/2021-4-1/00004",
    "tenantId": "60333984-86bb-47e0-910c-2edfd42500bd"
  },
  "response": {
    "statusCode": 200,
    "message": "The entity has been received successfully with System Generated Code Record",
    "responseObject": {

    }
  }
}