{
  "meta":{
    "testCaseId": "test-servicemaster-002",
    "entity"    : "servicemaster",
    "operation" : "post",
    "date"      : "31-march-2020"
  },
  "data" : {
    "serviceGroupRelation": {},
    "serviceInformation": {
      "isLimitedPeriodService": false,
      "isAssociatedWithOthers": false,
      "applicableVisitType": "Both (OP & IP)",
      "applicableGender": "MALE",
      "serviceCategoryId": "16f2482d-b703-46fa-a1a4-4612ed4d95a2",
      "applicableVisitTypeId": "8010522e-da32-42de-b185-8ba299b31d8b"
    },
    "serviceInformationSetting": {
      "weekDaysList": "[\"Monday\"]",
      "isPerformedOnSpecificDays": true
    },
    "serviceInformationConfigSetting": {},
    "serviceTariff": {
      "extPatientTariff": 0,
      "standardTariff": 100,
      "tariffFacilityId": "8114da38-6e9d-46f0-a28e-ca5826733ffe",
      "baseCurrencyId": "5c07dbd7-67bf-11eb-9242-5aa9a51b4c6e",
      "tariffStartDate": "2021/03/01",
      "tariffStartTime": "10:00",
      "tariffEndDate": "2021/03/03",
      "tariffEndTime": "10:00"
    },
    "serviceAdditionalDocuments": {},
    "serviceEquipmentDetails": [],
    "serviceMandatoryQuestion": [],
    "servicePerformingLocations": [],
    "serviceRequisitionRestrictionDetail": [],
    "serviceRequisitionRestrictions": {},
    "serviceTerminologyArea": [],
    "status": "ACTIVE",
    "serviceName": "A_${TESTRUNEXECTIME}",
    "code": "Auto generated",
    "serviceGroupId": "3bdd5c9d-33d1-44be-8da6-9737b8ca4ae6",
    "serviceTypeId": "b82fe107-54f4-4459-bae1-971a4af4bfad",
    "type": "service"
  },
  "response":{
    "statusCode": 200,
    "message" : "The entity has been received successfully With Min Length less than 3",
    "responseObject": {

    }
  }
}