{
    "meta":{
	    "testCaseId": "test-Add new master with user defined code",
	    "entity"    : "investigationresulttypevalue",
	    "operation" : "post",
	    "date"      : "31-march-2020"
	},
	"data" :{
		"investigationResultType": "codedelement",
		"status": "ACTIVE",
		"displayName": "K_${TESTRUNEXECTIME}",
		"code": "K_${TESTRUNEXECTIME}"
	},
	"response": {
		"statusCode": 200,
		"message" : "the entity with user defined code has been received successfully  ",
		"responseObject": {
		

		}
	}
}