{
    "meta":{
	    "testCaseId": "test-Add new master without investigation Result Type Value",
	    "entity"    : "investigationresulttypevalue",
	    "operation" : "post",
	    "date"      : "31-march-2020"
	},
	"data" :{
		"investigationResultType": "",
		"status": "ACTIVE",
		"displayName": "kokikla",
		"code": "Auto generated"
	},
	"response": {
		"statusCode": 400,
		"message" : "The entity without investigation Result Type Value field has not received successfully ",
		"responseObject": {
		

		}
	}
}