{
  "meta": {
    "testCaseId": "test-Update Identification Type",
    "entity": "identificationtypess",
    "operation": "put",
    "date": "30-March-2021"
  },
  "data": {
    "types": "New Election Card 001 ",
    "displaySequence": 1,
    "statusString": "ACTIVE",
    "id": "fbf7ae2e-cf76-48be-b76b-be4cb290b708",
    "name": "Election Card",
    "status": "ACTIVE",
    "displayName": "Election Card",
    "code": "OM-2021-3-30-00004",
    "tenantId": "60333984-86bb-47e0-910c-2edfd42500bd"
  },


  "response": {
    "statusCode": 200,
    "message": "The entity has been added updated successfully with Identification type",
    "responseObject": {

    }
  }
}