{
  "meta": {
    "testCaseId": "test-Add Duplicate Identification Type",
    "entity": "identificationtypess",
    "operation": "post",
    "date": "30-March-2021"
  },
  "data": {
    "displaySequence": 1,
    "status": "ACTIVE",
    "types": "Pen card",
    "code": "Auto generated"
  },


  "response": {
    "statusCode": 400,
    "message": "The entity has not added. Types can not be duplicate",
    "responseObject": {

    }
  }
}