{
  "meta": {
    "testCaseId": "test-Add Identification type Name with min length 2",
    "entity": "identificationtypess",
    "operation": "post",
    "date": "30-March-2021"
  },
  "data": {
    "displaySequence": 1,
    "status": "ACTIVE",
    "types": "IDENTI_${TESTRUNEXECTIME}",
    "code": "Auto generated"
  },


  "response": {
    "statusCode": 400,
    "message": "The entity has not added. Types min lenght should be 2",
    "responseObject": {

    }
  }
}