{
  "meta":{
    "testCaseId": "test-roa-002",
    "entity"    : "roa",
    "operation" : "post",
    "date"      : "31-march-2020"
  },
  "data" : {
    "status": "INACTIVE",
    "displayName": "A_${TESTRUNEXECTIME}",
    "code": "Auto generated"
  },
  "response":{
    "statusCode": 200,
    "message" : "The entity has been received successfully with InActive Status",
    "responseObject": {

    }
  }
}