{
    "meta":{
	    "testCaseId": "test-Item Master Without Item Name field",
	    "entity"    : "item",
	    "operation" : "post",
	    "date"      : "31-march-2020"
	},
	"data" :{
		"itemType": "FACILITYFURNITURE",
		"status": "ACTIVE",
		"itemstockstorage": {
			"vedCategoryCode": "",
			"stockCountFrequency": "00000000-0000-0000-0000-000000000000",
			"storageCondtionCode": "00000000-0000-0000-0000-000000000000"
		},
		"itemuomaccount": {
			"salesUomCode": "00000000-0000-0000-0000-000000000000",
			"purchaseUomCode": "00000000-0000-0000-0000-000000000000",
			"itemCategoryCode": "635a4f0e-2dc8-4371-baaf-5a017028610e",
			"inventoryMaintained": false,
			"batchTracked": true,
			"serialized": true,
			"serialNumberAutoGeneration": false,
			"baseUomCode": "653a867d-b38a-4b1c-b58f-2cb60769f4c1",
			"trackUomCode": "2962d7a5-a76b-4c4a-83c8-8932c13275e7",
			"salesAccountCode": null,
			"stockAccountCode": null,
			"costSalesAccountCode": null,
			"manufacturerCode": "72290e80-035c-4d7c-b74d-8d2ba643837b"
		},
		"itemalternate": [],
		"itemfacility": [],
		"itemsupplier": [],
		"name": "",
		"code": "mik-0012"
	},


	"response": {
		"statusCode": 400,
		"message" : "The Item Master without NAME field has not received successfully",
		"responseObject": {
		

		}
	}
}