{
  "meta": {
    "testCaseId": "test-item-001",
    "entity": "item",
    "operation": "delete",
    "date": "31-march-2020"
  },

  "data": {
    "id": "57ddc356-7e1b-4f2c-9cb8-f59932beee5b"
  },

  "response": {
    "statusCode": 200,
    "message": "The entity has been deleted successfully",
    "responseObject": {



    }
  }
}