{
  "meta": {
    "testCaseId": "test-Having child response flag- True- Child response enable- Update UoM field",
    "entity": "notesquestionnaire",
    "operation": "put",
    "date": "15-Apr-2021"
  },
  "data":{
    "statusString": "ACTIVE",
    "applicableGender": "MALE",
    "responseType": "LISTOFVALUES",
    "showAnswers": true,
    "showNotes": true,
    "showOmitAction": true,
    "responseListValues": "TRUEFALSE",
    "answerResponseDetails": [
      {
        "id": "0e435d60-6b16-47b1-bc53-ef237f47df9e",
        "questionDefinitionID": "98d5274f-4a63-469f-bb51-3906c879f8ff",
        "sno": 1,
        "response": "APRIL 13",
        "uom": "b7456d66-540e-450d-a936-e5c0f3dad7d3",
        "havingChildResponse": true,
        "childResponseDetail": [
          {
            "id": "a5aa58bd-16c8-45f8-a52c-3bb9d48fee6d",
            "responseAnswer": "APRIL 13 040004",
            "uom": "2962d7a5-a76b-4c4a-83c8-8932c13275e7",
            "answerResponseId": "0e435d60-6b16-47b1-bc53-ef237f47df9e",
            "sno": 1
          }
        ],
        "rowIdentifier": "c82a5933-7248-4989-9c14-8988fd966524"
      }
    ],
    "id": "98d5274f-4a63-469f-bb51-3906c879f8ff",
    "name": "Question 18 April 13 2021- 2021",
    "status": "ACTIVE",
    "displayName": "Question 18 April 13",
    "code": "NQ-2021-4-13-00020",
    "tenantId": "60333984-86bb-47e0-910c-2edfd42500bd"
  },

  "response": {
    "statusCode": 200,
    "message": "The entity has been updated successfully with UoM under child response section",
    "responseObject": {

    }
  }
}