{
  "meta": {
    "testCaseId": "test-Add SOAP Notes Questionnaires- with Having Child Response(s) – Further Level flag- True- Define Child Response(s) enable-without Response or Answer field- Mandatory",
    "entity": "notesquestionnaire",
    "operation": "post",
    "date": "13-Apr-2021"
  },
  "data": {
    "answerResponseDetails": [
      {
        "sno": 1,
        "response": "APRIL 13",
        "uom": "b7456d66-540e-450d-a936-e5c0f3dad7d3",
        "childResponse": false,
        "childResponseDetail": [
          {
            "sno": 1,
            "responseAnswer": "",
            "uom": "7d1a2f7d-1700-4272-83f4-6e77d6e49b5b",
            "rowIdentifier": "c188ee5b-cb82-484f-955e-69098b8d97a2"
          }
        ],
        "rowIdentifier": "351375a5-9747-46f3-b12b-62225932e5a0",
        "havingChildResponse": true
      }
    ],
    "status": "ACTIVE",
    "name": "SOAP NQ_${TESTRUNEXECTIME}",
    "code": "Auto generated",
    "responseType": "LISTOFVALUES",
    "showAnswers": true,
    "responseListValues": "YESNO",
    "showNotes": true,
    "applicableGender": "MALE",
    "showOmitAction": true
  },



  "response": {
    "statusCode": 400,
    "message": "The entity has not added. Response Answer field can not be blank if child response link is enable",
    "responseObject": {

    }
  }
}