{
  "meta": {
    "testCaseId": "test-Update Employee Designation Name",
    "entity": "employeedesignations",
    "operation": "put",
    "date": "11-March-2021"
  },
  "data":{
  "designationShortName": "",
  "statusString": "ACTIVE",
  "id": "f93b7f14-9cc0-492f-b400-078f57b03c14",
  "name": "CFOO",
  "status": "ACTIVE",
  "displayName": "CFO",
  "code": "OM-2021-3-11-00004",
  "tenantId": "60333984-86bb-47e0-910c-2edfd42500bd"
},
  "response": {
    "statusCode": 200,
    "message": "The entity has been updated successfully",
    "responseObject": {

    }
  }
}