{
  "meta":{
    "testCaseId": "test-TaxConfiguration-002",
    "entity"    : "taxconfig",
    "operation" : "post",
    "date"      : "31-march-2020"
  },
  "data" : {
    "taxConfigurationDetails": [
      {
        "visitType": "In patient",
        "servicesMedications": "Service",
        "taxConfigurationDetailValues": [
          {
            "applicable": true,
            "standardTaxValue": 2,
            "isException": true,
            "parentId": "00000000-0000-0000-0000-000000000000",
            "taxComponentSubComponent": "0fb905db-a638-4ceb-9161-e2981503ed3d",
            "taxConfigurationDetailExceptions": [
              {
                "iseditmode": false,
                "exceptionConfigurationLevel": "Speciality",
                "exceptionItem": "3bebf48d-2ef9-4b66-b4f0-8ec7de0c8465",
                "taxConfigure": [
                  {
                    "taxComponentStandardTaxValue": 2,
                    "taxComponentStandardTax": "0fb905db-a638-4ceb-9161-e2981503ed3d",
                    "taxComponentStandardTaxName": "cg"
                  }
                ]
              }
            ]
          },
          {
            "applicable": false,
            "standardTaxValue": 0,
            "isException": false,
            "parentId": "b444697a-bcf2-43af-a350-4a8c2b3eac93",
            "taxComponentSubComponent": "962780bc-4319-4229-a1e5-e2e32d63f534",
            "taxConfigurationDetailExceptions": []
          },
          {
            "applicable": false,
            "standardTaxValue": 0,
            "isException": false,
            "parentId": "b444697a-bcf2-43af-a350-4a8c2b3eac93",
            "taxComponentSubComponent": "dfd99156-ba94-4029-8cfb-a2a5be748f9b",
            "taxConfigurationDetailExceptions": []
          },
          {
            "applicable": false,
            "standardTaxValue": 0,
            "isException": false,
            "parentId": "b444697a-bcf2-43af-a350-4a8c2b3eac93",
            "taxComponentSubComponent": "06e4f457-7e82-4aa7-a716-5aa6e21635e9",
            "taxConfigurationDetailExceptions": []
          },
          {
            "applicable": false,
            "standardTaxValue": 0,
            "isException": false,
            "parentId": "b444697a-bcf2-43af-a350-4a8c2b3eac93",
            "taxComponentSubComponent": "f69b1000-ad0d-4979-b3a6-4dd97ef345d9",
            "taxConfigurationDetailExceptions": []
          },
          {
            "applicable": false,
            "standardTaxValue": 0,
            "isException": false,
            "parentId": "b444697a-bcf2-43af-a350-4a8c2b3eac93",
            "taxComponentSubComponent": "03466600-cc6e-45c3-a760-d4b79e98f853",
            "taxConfigurationDetailExceptions": []
          },
          {
            "applicable": false,
            "standardTaxValue": 0,
            "isException": false,
            "parentId": "b444697a-bcf2-43af-a350-4a8c2b3eac93",
            "taxComponentSubComponent": "0db7b19b-898c-4c99-b3e4-98966e04ea6e",
            "taxConfigurationDetailExceptions": []
          },
          {
            "applicable": false,
            "standardTaxValue": 0,
            "isException": false,
            "parentId": "b444697a-bcf2-43af-a350-4a8c2b3eac93",
            "taxComponentSubComponent": "2f6cde16-d84a-4f0b-b7af-e1dd596d8da8",
            "taxConfigurationDetailExceptions": []
          },
          {
            "applicable": false,
            "standardTaxValue": 0,
            "isException": false,
            "parentId": "b444697a-bcf2-43af-a350-4a8c2b3eac93",
            "taxComponentSubComponent": "710339de-aece-44e6-bd89-c1ecf9a39030",
            "taxConfigurationDetailExceptions": []
          },
          {
            "applicable": false,
            "standardTaxValue": 0,
            "isException": false,
            "parentId": "b444697a-bcf2-43af-a350-4a8c2b3eac93",
            "taxComponentSubComponent": "6256862c-0355-4f12-af76-0c611833bb3b",
            "taxConfigurationDetailExceptions": []
          },
          {
            "applicable": false,
            "standardTaxValue": 0,
            "isException": false,
            "parentId": "b444697a-bcf2-43af-a350-4a8c2b3eac93",
            "taxComponentSubComponent": "279795bc-df66-4ce2-af3d-feccdae9ab41",
            "taxConfigurationDetailExceptions": []
          },
          {
            "applicable": false,
            "standardTaxValue": 0,
            "isException": false,
            "parentId": "b444697a-bcf2-43af-a350-4a8c2b3eac93",
            "taxComponentSubComponent": "80d07e06-03d9-468b-9f78-eea1b401ef92",
            "taxConfigurationDetailExceptions": []
          },
          {
            "applicable": false,
            "standardTaxValue": 0,
            "isException": false,
            "parentId": "b444697a-bcf2-43af-a350-4a8c2b3eac93",
            "taxComponentSubComponent": "a97cf8c7-5c84-4ed3-a597-61b8acb48c84",
            "taxConfigurationDetailExceptions": []
          },
          {
            "applicable": false,
            "standardTaxValue": 0,
            "isException": false,
            "parentId": "b444697a-bcf2-43af-a350-4a8c2b3eac93",
            "taxComponentSubComponent": "42291cc2-ac66-426c-bedb-14dd4c9b9f3a",
            "taxConfigurationDetailExceptions": []
          },
          {
            "applicable": false,
            "standardTaxValue": 0,
            "isException": false,
            "parentId": "b444697a-bcf2-43af-a350-4a8c2b3eac93",
            "taxComponentSubComponent": "3f25e057-9c1e-4f3a-8db2-63d1d1bab7fd",
            "taxConfigurationDetailExceptions": []
          },
          {
            "applicable": false,
            "standardTaxValue": 0,
            "isException": false,
            "parentId": "b444697a-bcf2-43af-a350-4a8c2b3eac93",
            "taxComponentSubComponent": "e47f26bd-d352-475d-aa1e-f3b66d546415",
            "taxConfigurationDetailExceptions": []
          },
          {
            "applicable": false,
            "standardTaxValue": 0,
            "isException": false,
            "parentId": "b444697a-bcf2-43af-a350-4a8c2b3eac93",
            "taxComponentSubComponent": "b444697a-bcf2-43af-a350-4a8c2b3eac93",
            "taxConfigurationDetailExceptions": []
          }
        ]
      },
      {
        "visitType": "In patient",
        "servicesMedications": "Medication",
        "taxConfigurationDetailValues": [
          {
            "applicable": true,
            "standardTaxValue": 2,
            "isException": true,
            "parentId": "00000000-0000-0000-0000-000000000000",
            "taxComponentSubComponent": "0fb905db-a638-4ceb-9161-e2981503ed3d",
            "taxConfigurationDetailExceptions": []
          },
          {
            "applicable": false,
            "standardTaxValue": 0,
            "isException": false,
            "parentId": "b444697a-bcf2-43af-a350-4a8c2b3eac93",
            "taxComponentSubComponent": "962780bc-4319-4229-a1e5-e2e32d63f534",
            "taxConfigurationDetailExceptions": []
          },
          {
            "applicable": false,
            "standardTaxValue": 0,
            "isException": false,
            "parentId": "b444697a-bcf2-43af-a350-4a8c2b3eac93",
            "taxComponentSubComponent": "dfd99156-ba94-4029-8cfb-a2a5be748f9b",
            "taxConfigurationDetailExceptions": []
          },
          {
            "applicable": false,
            "standardTaxValue": 0,
            "isException": false,
            "parentId": "b444697a-bcf2-43af-a350-4a8c2b3eac93",
            "taxComponentSubComponent": "06e4f457-7e82-4aa7-a716-5aa6e21635e9",
            "taxConfigurationDetailExceptions": []
          },
          {
            "applicable": false,
            "standardTaxValue": 0,
            "isException": false,
            "parentId": "b444697a-bcf2-43af-a350-4a8c2b3eac93",
            "taxComponentSubComponent": "f69b1000-ad0d-4979-b3a6-4dd97ef345d9",
            "taxConfigurationDetailExceptions": []
          },
          {
            "applicable": false,
            "standardTaxValue": 0,
            "isException": false,
            "parentId": "b444697a-bcf2-43af-a350-4a8c2b3eac93",
            "taxComponentSubComponent": "03466600-cc6e-45c3-a760-d4b79e98f853",
            "taxConfigurationDetailExceptions": []
          },
          {
            "applicable": false,
            "standardTaxValue": 0,
            "isException": false,
            "parentId": "b444697a-bcf2-43af-a350-4a8c2b3eac93",
            "taxComponentSubComponent": "0db7b19b-898c-4c99-b3e4-98966e04ea6e",
            "taxConfigurationDetailExceptions": []
          },
          {
            "applicable": false,
            "standardTaxValue": 0,
            "isException": false,
            "parentId": "b444697a-bcf2-43af-a350-4a8c2b3eac93",
            "taxComponentSubComponent": "2f6cde16-d84a-4f0b-b7af-e1dd596d8da8",
            "taxConfigurationDetailExceptions": []
          },
          {
            "applicable": false,
            "standardTaxValue": 0,
            "isException": false,
            "parentId": "b444697a-bcf2-43af-a350-4a8c2b3eac93",
            "taxComponentSubComponent": "710339de-aece-44e6-bd89-c1ecf9a39030",
            "taxConfigurationDetailExceptions": []
          },
          {
            "applicable": false,
            "standardTaxValue": 0,
            "isException": false,
            "parentId": "b444697a-bcf2-43af-a350-4a8c2b3eac93",
            "taxComponentSubComponent": "6256862c-0355-4f12-af76-0c611833bb3b",
            "taxConfigurationDetailExceptions": []
          },
          {
            "applicable": false,
            "standardTaxValue": 0,
            "isException": false,
            "parentId": "b444697a-bcf2-43af-a350-4a8c2b3eac93",
            "taxComponentSubComponent": "279795bc-df66-4ce2-af3d-feccdae9ab41",
            "taxConfigurationDetailExceptions": []
          },
          {
            "applicable": false,
            "standardTaxValue": 0,
            "isException": false,
            "parentId": "b444697a-bcf2-43af-a350-4a8c2b3eac93",
            "taxComponentSubComponent": "80d07e06-03d9-468b-9f78-eea1b401ef92",
            "taxConfigurationDetailExceptions": []
          },
          {
            "applicable": false,
            "standardTaxValue": 0,
            "isException": false,
            "parentId": "b444697a-bcf2-43af-a350-4a8c2b3eac93",
            "taxComponentSubComponent": "a97cf8c7-5c84-4ed3-a597-61b8acb48c84",
            "taxConfigurationDetailExceptions": []
          },
          {
            "applicable": false,
            "standardTaxValue": 0,
            "isException": false,
            "parentId": "b444697a-bcf2-43af-a350-4a8c2b3eac93",
            "taxComponentSubComponent": "42291cc2-ac66-426c-bedb-14dd4c9b9f3a",
            "taxConfigurationDetailExceptions": []
          },
          {
            "applicable": false,
            "standardTaxValue": 0,
            "isException": false,
            "parentId": "b444697a-bcf2-43af-a350-4a8c2b3eac93",
            "taxComponentSubComponent": "3f25e057-9c1e-4f3a-8db2-63d1d1bab7fd",
            "taxConfigurationDetailExceptions": []
          },
          {
            "applicable": false,
            "standardTaxValue": 0,
            "isException": false,
            "parentId": "b444697a-bcf2-43af-a350-4a8c2b3eac93",
            "taxComponentSubComponent": "e47f26bd-d352-475d-aa1e-f3b66d546415",
            "taxConfigurationDetailExceptions": []
          },
          {
            "applicable": false,
            "standardTaxValue": 0,
            "isException": false,
            "parentId": "b444697a-bcf2-43af-a350-4a8c2b3eac93",
            "taxComponentSubComponent": "b444697a-bcf2-43af-a350-4a8c2b3eac93",
            "taxConfigurationDetailExceptions": []
          }
        ]
      },
      {
        "visitType": "Out patient",
        "servicesMedications": "Service",
        "taxConfigurationDetailValues": [
          {
            "applicable": false,
            "standardTaxValue": 0,
            "isException": false,
            "parentId": "00000000-0000-0000-0000-000000000000",
            "taxComponentSubComponent": "0fb905db-a638-4ceb-9161-e2981503ed3d",
            "taxConfigurationDetailExceptions": []
          },
          {
            "applicable": false,
            "standardTaxValue": 0,
            "isException": false,
            "parentId": "b444697a-bcf2-43af-a350-4a8c2b3eac93",
            "taxComponentSubComponent": "962780bc-4319-4229-a1e5-e2e32d63f534",
            "taxConfigurationDetailExceptions": []
          },
          {
            "applicable": false,
            "standardTaxValue": 0,
            "isException": false,
            "parentId": "b444697a-bcf2-43af-a350-4a8c2b3eac93",
            "taxComponentSubComponent": "dfd99156-ba94-4029-8cfb-a2a5be748f9b",
            "taxConfigurationDetailExceptions": []
          },
          {
            "applicable": false,
            "standardTaxValue": 0,
            "isException": false,
            "parentId": "b444697a-bcf2-43af-a350-4a8c2b3eac93",
            "taxComponentSubComponent": "06e4f457-7e82-4aa7-a716-5aa6e21635e9",
            "taxConfigurationDetailExceptions": []
          },
          {
            "applicable": false,
            "standardTaxValue": 0,
            "isException": false,
            "parentId": "b444697a-bcf2-43af-a350-4a8c2b3eac93",
            "taxComponentSubComponent": "f69b1000-ad0d-4979-b3a6-4dd97ef345d9",
            "taxConfigurationDetailExceptions": []
          },
          {
            "applicable": false,
            "standardTaxValue": 0,
            "isException": false,
            "parentId": "b444697a-bcf2-43af-a350-4a8c2b3eac93",
            "taxComponentSubComponent": "03466600-cc6e-45c3-a760-d4b79e98f853",
            "taxConfigurationDetailExceptions": []
          },
          {
            "applicable": false,
            "standardTaxValue": 0,
            "isException": false,
            "parentId": "b444697a-bcf2-43af-a350-4a8c2b3eac93",
            "taxComponentSubComponent": "0db7b19b-898c-4c99-b3e4-98966e04ea6e",
            "taxConfigurationDetailExceptions": []
          },
          {
            "applicable": false,
            "standardTaxValue": 0,
            "isException": false,
            "parentId": "b444697a-bcf2-43af-a350-4a8c2b3eac93",
            "taxComponentSubComponent": "2f6cde16-d84a-4f0b-b7af-e1dd596d8da8",
            "taxConfigurationDetailExceptions": []
          },
          {
            "applicable": false,
            "standardTaxValue": 0,
            "isException": false,
            "parentId": "b444697a-bcf2-43af-a350-4a8c2b3eac93",
            "taxComponentSubComponent": "710339de-aece-44e6-bd89-c1ecf9a39030",
            "taxConfigurationDetailExceptions": []
          },
          {
            "applicable": false,
            "standardTaxValue": 0,
            "isException": false,
            "parentId": "b444697a-bcf2-43af-a350-4a8c2b3eac93",
            "taxComponentSubComponent": "6256862c-0355-4f12-af76-0c611833bb3b",
            "taxConfigurationDetailExceptions": []
          },
          {
            "applicable": false,
            "standardTaxValue": 0,
            "isException": false,
            "parentId": "b444697a-bcf2-43af-a350-4a8c2b3eac93",
            "taxComponentSubComponent": "279795bc-df66-4ce2-af3d-feccdae9ab41",
            "taxConfigurationDetailExceptions": []
          },
          {
            "applicable": false,
            "standardTaxValue": 0,
            "isException": false,
            "parentId": "b444697a-bcf2-43af-a350-4a8c2b3eac93",
            "taxComponentSubComponent": "80d07e06-03d9-468b-9f78-eea1b401ef92",
            "taxConfigurationDetailExceptions": []
          },
          {
            "applicable": false,
            "standardTaxValue": 0,
            "isException": false,
            "parentId": "b444697a-bcf2-43af-a350-4a8c2b3eac93",
            "taxComponentSubComponent": "a97cf8c7-5c84-4ed3-a597-61b8acb48c84",
            "taxConfigurationDetailExceptions": []
          },
          {
            "applicable": false,
            "standardTaxValue": 0,
            "isException": false,
            "parentId": "b444697a-bcf2-43af-a350-4a8c2b3eac93",
            "taxComponentSubComponent": "42291cc2-ac66-426c-bedb-14dd4c9b9f3a",
            "taxConfigurationDetailExceptions": []
          },
          {
            "applicable": false,
            "standardTaxValue": 0,
            "isException": false,
            "parentId": "b444697a-bcf2-43af-a350-4a8c2b3eac93",
            "taxComponentSubComponent": "3f25e057-9c1e-4f3a-8db2-63d1d1bab7fd",
            "taxConfigurationDetailExceptions": []
          },
          {
            "applicable": false,
            "standardTaxValue": 0,
            "isException": false,
            "parentId": "b444697a-bcf2-43af-a350-4a8c2b3eac93",
            "taxComponentSubComponent": "e47f26bd-d352-475d-aa1e-f3b66d546415",
            "taxConfigurationDetailExceptions": []
          },
          {
            "applicable": false,
            "standardTaxValue": 0,
            "isException": false,
            "parentId": "b444697a-bcf2-43af-a350-4a8c2b3eac93",
            "taxComponentSubComponent": "b444697a-bcf2-43af-a350-4a8c2b3eac93",
            "taxConfigurationDetailExceptions": []
          }
        ]
      },
      {
        "visitType": "Out patient",
        "servicesMedications": "Medication",
        "taxConfigurationDetailValues": [
          {
            "applicable": false,
            "standardTaxValue": 0,
            "isException": false,
            "parentId": "00000000-0000-0000-0000-000000000000",
            "taxComponentSubComponent": "0fb905db-a638-4ceb-9161-e2981503ed3d",
            "taxConfigurationDetailExceptions": []
          },
          {
            "applicable": false,
            "standardTaxValue": 0,
            "isException": false,
            "parentId": "b444697a-bcf2-43af-a350-4a8c2b3eac93",
            "taxComponentSubComponent": "962780bc-4319-4229-a1e5-e2e32d63f534",
            "taxConfigurationDetailExceptions": []
          },
          {
            "applicable": false,
            "standardTaxValue": 0,
            "isException": false,
            "parentId": "b444697a-bcf2-43af-a350-4a8c2b3eac93",
            "taxComponentSubComponent": "dfd99156-ba94-4029-8cfb-a2a5be748f9b",
            "taxConfigurationDetailExceptions": []
          },
          {
            "applicable": false,
            "standardTaxValue": 0,
            "isException": false,
            "parentId": "b444697a-bcf2-43af-a350-4a8c2b3eac93",
            "taxComponentSubComponent": "06e4f457-7e82-4aa7-a716-5aa6e21635e9",
            "taxConfigurationDetailExceptions": []
          },
          {
            "applicable": false,
            "standardTaxValue": 0,
            "isException": false,
            "parentId": "b444697a-bcf2-43af-a350-4a8c2b3eac93",
            "taxComponentSubComponent": "f69b1000-ad0d-4979-b3a6-4dd97ef345d9",
            "taxConfigurationDetailExceptions": []
          },
          {
            "applicable": false,
            "standardTaxValue": 0,
            "isException": false,
            "parentId": "b444697a-bcf2-43af-a350-4a8c2b3eac93",
            "taxComponentSubComponent": "03466600-cc6e-45c3-a760-d4b79e98f853",
            "taxConfigurationDetailExceptions": []
          },
          {
            "applicable": false,
            "standardTaxValue": 0,
            "isException": false,
            "parentId": "b444697a-bcf2-43af-a350-4a8c2b3eac93",
            "taxComponentSubComponent": "0db7b19b-898c-4c99-b3e4-98966e04ea6e",
            "taxConfigurationDetailExceptions": []
          },
          {
            "applicable": false,
            "standardTaxValue": 0,
            "isException": false,
            "parentId": "b444697a-bcf2-43af-a350-4a8c2b3eac93",
            "taxComponentSubComponent": "2f6cde16-d84a-4f0b-b7af-e1dd596d8da8",
            "taxConfigurationDetailExceptions": []
          },
          {
            "applicable": false,
            "standardTaxValue": 0,
            "isException": false,
            "parentId": "b444697a-bcf2-43af-a350-4a8c2b3eac93",
            "taxComponentSubComponent": "710339de-aece-44e6-bd89-c1ecf9a39030",
            "taxConfigurationDetailExceptions": []
          },
          {
            "applicable": false,
            "standardTaxValue": 0,
            "isException": false,
            "parentId": "b444697a-bcf2-43af-a350-4a8c2b3eac93",
            "taxComponentSubComponent": "6256862c-0355-4f12-af76-0c611833bb3b",
            "taxConfigurationDetailExceptions": []
          },
          {
            "applicable": false,
            "standardTaxValue": 0,
            "isException": false,
            "parentId": "b444697a-bcf2-43af-a350-4a8c2b3eac93",
            "taxComponentSubComponent": "279795bc-df66-4ce2-af3d-feccdae9ab41",
            "taxConfigurationDetailExceptions": []
          },
          {
            "applicable": false,
            "standardTaxValue": 0,
            "isException": false,
            "parentId": "b444697a-bcf2-43af-a350-4a8c2b3eac93",
            "taxComponentSubComponent": "80d07e06-03d9-468b-9f78-eea1b401ef92",
            "taxConfigurationDetailExceptions": []
          },
          {
            "applicable": false,
            "standardTaxValue": 0,
            "isException": false,
            "parentId": "b444697a-bcf2-43af-a350-4a8c2b3eac93",
            "taxComponentSubComponent": "a97cf8c7-5c84-4ed3-a597-61b8acb48c84",
            "taxConfigurationDetailExceptions": []
          },
          {
            "applicable": false,
            "standardTaxValue": 0,
            "isException": false,
            "parentId": "b444697a-bcf2-43af-a350-4a8c2b3eac93",
            "taxComponentSubComponent": "42291cc2-ac66-426c-bedb-14dd4c9b9f3a",
            "taxConfigurationDetailExceptions": []
          },
          {
            "applicable": false,
            "standardTaxValue": 0,
            "isException": false,
            "parentId": "b444697a-bcf2-43af-a350-4a8c2b3eac93",
            "taxComponentSubComponent": "3f25e057-9c1e-4f3a-8db2-63d1d1bab7fd",
            "taxConfigurationDetailExceptions": []
          },
          {
            "applicable": false,
            "standardTaxValue": 0,
            "isException": false,
            "parentId": "b444697a-bcf2-43af-a350-4a8c2b3eac93",
            "taxComponentSubComponent": "e47f26bd-d352-475d-aa1e-f3b66d546415",
            "taxConfigurationDetailExceptions": []
          },
          {
            "applicable": false,
            "standardTaxValue": 0,
            "isException": false,
            "parentId": "b444697a-bcf2-43af-a350-4a8c2b3eac93",
            "taxComponentSubComponent": "b444697a-bcf2-43af-a350-4a8c2b3eac93",
            "taxConfigurationDetailExceptions": []
          }
        ]
      },
      {
        "visitType": "Emergency",
        "servicesMedications": "Service",
        "taxConfigurationDetailValues": [
          {
            "applicable": false,
            "standardTaxValue": 0,
            "isException": false,
            "parentId": "00000000-0000-0000-0000-000000000000",
            "taxComponentSubComponent": "0fb905db-a638-4ceb-9161-e2981503ed3d",
            "taxConfigurationDetailExceptions": []
          },
          {
            "applicable": false,
            "standardTaxValue": 0,
            "isException": false,
            "parentId": "b444697a-bcf2-43af-a350-4a8c2b3eac93",
            "taxComponentSubComponent": "962780bc-4319-4229-a1e5-e2e32d63f534",
            "taxConfigurationDetailExceptions": []
          },
          {
            "applicable": false,
            "standardTaxValue": 0,
            "isException": false,
            "parentId": "b444697a-bcf2-43af-a350-4a8c2b3eac93",
            "taxComponentSubComponent": "dfd99156-ba94-4029-8cfb-a2a5be748f9b",
            "taxConfigurationDetailExceptions": []
          },
          {
            "applicable": false,
            "standardTaxValue": 0,
            "isException": false,
            "parentId": "b444697a-bcf2-43af-a350-4a8c2b3eac93",
            "taxComponentSubComponent": "06e4f457-7e82-4aa7-a716-5aa6e21635e9",
            "taxConfigurationDetailExceptions": []
          },
          {
            "applicable": false,
            "standardTaxValue": 0,
            "isException": false,
            "parentId": "b444697a-bcf2-43af-a350-4a8c2b3eac93",
            "taxComponentSubComponent": "f69b1000-ad0d-4979-b3a6-4dd97ef345d9",
            "taxConfigurationDetailExceptions": []
          },
          {
            "applicable": false,
            "standardTaxValue": 0,
            "isException": false,
            "parentId": "b444697a-bcf2-43af-a350-4a8c2b3eac93",
            "taxComponentSubComponent": "03466600-cc6e-45c3-a760-d4b79e98f853",
            "taxConfigurationDetailExceptions": []
          },
          {
            "applicable": false,
            "standardTaxValue": 0,
            "isException": false,
            "parentId": "b444697a-bcf2-43af-a350-4a8c2b3eac93",
            "taxComponentSubComponent": "0db7b19b-898c-4c99-b3e4-98966e04ea6e",
            "taxConfigurationDetailExceptions": []
          },
          {
            "applicable": false,
            "standardTaxValue": 0,
            "isException": false,
            "parentId": "b444697a-bcf2-43af-a350-4a8c2b3eac93",
            "taxComponentSubComponent": "2f6cde16-d84a-4f0b-b7af-e1dd596d8da8",
            "taxConfigurationDetailExceptions": []
          },
          {
            "applicable": false,
            "standardTaxValue": 0,
            "isException": false,
            "parentId": "b444697a-bcf2-43af-a350-4a8c2b3eac93",
            "taxComponentSubComponent": "710339de-aece-44e6-bd89-c1ecf9a39030",
            "taxConfigurationDetailExceptions": []
          },
          {
            "applicable": false,
            "standardTaxValue": 0,
            "isException": false,
            "parentId": "b444697a-bcf2-43af-a350-4a8c2b3eac93",
            "taxComponentSubComponent": "6256862c-0355-4f12-af76-0c611833bb3b",
            "taxConfigurationDetailExceptions": []
          },
          {
            "applicable": false,
            "standardTaxValue": 0,
            "isException": false,
            "parentId": "b444697a-bcf2-43af-a350-4a8c2b3eac93",
            "taxComponentSubComponent": "279795bc-df66-4ce2-af3d-feccdae9ab41",
            "taxConfigurationDetailExceptions": []
          },
          {
            "applicable": false,
            "standardTaxValue": 0,
            "isException": false,
            "parentId": "b444697a-bcf2-43af-a350-4a8c2b3eac93",
            "taxComponentSubComponent": "80d07e06-03d9-468b-9f78-eea1b401ef92",
            "taxConfigurationDetailExceptions": []
          },
          {
            "applicable": false,
            "standardTaxValue": 0,
            "isException": false,
            "parentId": "b444697a-bcf2-43af-a350-4a8c2b3eac93",
            "taxComponentSubComponent": "a97cf8c7-5c84-4ed3-a597-61b8acb48c84",
            "taxConfigurationDetailExceptions": []
          },
          {
            "applicable": false,
            "standardTaxValue": 0,
            "isException": false,
            "parentId": "b444697a-bcf2-43af-a350-4a8c2b3eac93",
            "taxComponentSubComponent": "42291cc2-ac66-426c-bedb-14dd4c9b9f3a",
            "taxConfigurationDetailExceptions": []
          },
          {
            "applicable": false,
            "standardTaxValue": 0,
            "isException": false,
            "parentId": "b444697a-bcf2-43af-a350-4a8c2b3eac93",
            "taxComponentSubComponent": "3f25e057-9c1e-4f3a-8db2-63d1d1bab7fd",
            "taxConfigurationDetailExceptions": []
          },
          {
            "applicable": false,
            "standardTaxValue": 0,
            "isException": false,
            "parentId": "b444697a-bcf2-43af-a350-4a8c2b3eac93",
            "taxComponentSubComponent": "e47f26bd-d352-475d-aa1e-f3b66d546415",
            "taxConfigurationDetailExceptions": []
          },
          {
            "applicable": false,
            "standardTaxValue": 0,
            "isException": false,
            "parentId": "b444697a-bcf2-43af-a350-4a8c2b3eac93",
            "taxComponentSubComponent": "b444697a-bcf2-43af-a350-4a8c2b3eac93",
            "taxConfigurationDetailExceptions": []
          }
        ]
      },
      {
        "visitType": "Emergency",
        "servicesMedications": "Medication",
        "taxConfigurationDetailValues": [
          {
            "applicable": false,
            "standardTaxValue": 0,
            "isException": false,
            "parentId": "00000000-0000-0000-0000-000000000000",
            "taxComponentSubComponent": "0fb905db-a638-4ceb-9161-e2981503ed3d",
            "taxConfigurationDetailExceptions": []
          },
          {
            "applicable": false,
            "standardTaxValue": 0,
            "isException": false,
            "parentId": "b444697a-bcf2-43af-a350-4a8c2b3eac93",
            "taxComponentSubComponent": "962780bc-4319-4229-a1e5-e2e32d63f534",
            "taxConfigurationDetailExceptions": []
          },
          {
            "applicable": false,
            "standardTaxValue": 0,
            "isException": false,
            "parentId": "b444697a-bcf2-43af-a350-4a8c2b3eac93",
            "taxComponentSubComponent": "dfd99156-ba94-4029-8cfb-a2a5be748f9b",
            "taxConfigurationDetailExceptions": []
          },
          {
            "applicable": false,
            "standardTaxValue": 0,
            "isException": false,
            "parentId": "b444697a-bcf2-43af-a350-4a8c2b3eac93",
            "taxComponentSubComponent": "06e4f457-7e82-4aa7-a716-5aa6e21635e9",
            "taxConfigurationDetailExceptions": []
          },
          {
            "applicable": false,
            "standardTaxValue": 0,
            "isException": false,
            "parentId": "b444697a-bcf2-43af-a350-4a8c2b3eac93",
            "taxComponentSubComponent": "f69b1000-ad0d-4979-b3a6-4dd97ef345d9",
            "taxConfigurationDetailExceptions": []
          },
          {
            "applicable": false,
            "standardTaxValue": 0,
            "isException": false,
            "parentId": "b444697a-bcf2-43af-a350-4a8c2b3eac93",
            "taxComponentSubComponent": "03466600-cc6e-45c3-a760-d4b79e98f853",
            "taxConfigurationDetailExceptions": []
          },
          {
            "applicable": false,
            "standardTaxValue": 0,
            "isException": false,
            "parentId": "b444697a-bcf2-43af-a350-4a8c2b3eac93",
            "taxComponentSubComponent": "0db7b19b-898c-4c99-b3e4-98966e04ea6e",
            "taxConfigurationDetailExceptions": []
          },
          {
            "applicable": false,
            "standardTaxValue": 0,
            "isException": false,
            "parentId": "b444697a-bcf2-43af-a350-4a8c2b3eac93",
            "taxComponentSubComponent": "2f6cde16-d84a-4f0b-b7af-e1dd596d8da8",
            "taxConfigurationDetailExceptions": []
          },
          {
            "applicable": false,
            "standardTaxValue": 0,
            "isException": false,
            "parentId": "b444697a-bcf2-43af-a350-4a8c2b3eac93",
            "taxComponentSubComponent": "710339de-aece-44e6-bd89-c1ecf9a39030",
            "taxConfigurationDetailExceptions": []
          },
          {
            "applicable": false,
            "standardTaxValue": 0,
            "isException": false,
            "parentId": "b444697a-bcf2-43af-a350-4a8c2b3eac93",
            "taxComponentSubComponent": "6256862c-0355-4f12-af76-0c611833bb3b",
            "taxConfigurationDetailExceptions": []
          },
          {
            "applicable": false,
            "standardTaxValue": 0,
            "isException": false,
            "parentId": "b444697a-bcf2-43af-a350-4a8c2b3eac93",
            "taxComponentSubComponent": "279795bc-df66-4ce2-af3d-feccdae9ab41",
            "taxConfigurationDetailExceptions": []
          },
          {
            "applicable": false,
            "standardTaxValue": 0,
            "isException": false,
            "parentId": "b444697a-bcf2-43af-a350-4a8c2b3eac93",
            "taxComponentSubComponent": "80d07e06-03d9-468b-9f78-eea1b401ef92",
            "taxConfigurationDetailExceptions": []
          },
          {
            "applicable": false,
            "standardTaxValue": 0,
            "isException": false,
            "parentId": "b444697a-bcf2-43af-a350-4a8c2b3eac93",
            "taxComponentSubComponent": "a97cf8c7-5c84-4ed3-a597-61b8acb48c84",
            "taxConfigurationDetailExceptions": []
          },
          {
            "applicable": false,
            "standardTaxValue": 0,
            "isException": false,
            "parentId": "b444697a-bcf2-43af-a350-4a8c2b3eac93",
            "taxComponentSubComponent": "42291cc2-ac66-426c-bedb-14dd4c9b9f3a",
            "taxConfigurationDetailExceptions": []
          },
          {
            "applicable": false,
            "standardTaxValue": 0,
            "isException": false,
            "parentId": "b444697a-bcf2-43af-a350-4a8c2b3eac93",
            "taxComponentSubComponent": "3f25e057-9c1e-4f3a-8db2-63d1d1bab7fd",
            "taxConfigurationDetailExceptions": []
          },
          {
            "applicable": false,
            "standardTaxValue": 0,
            "isException": false,
            "parentId": "b444697a-bcf2-43af-a350-4a8c2b3eac93",
            "taxComponentSubComponent": "e47f26bd-d352-475d-aa1e-f3b66d546415",
            "taxConfigurationDetailExceptions": []
          },
          {
            "applicable": false,
            "standardTaxValue": 0,
            "isException": false,
            "parentId": "b444697a-bcf2-43af-a350-4a8c2b3eac93",
            "taxComponentSubComponent": "b444697a-bcf2-43af-a350-4a8c2b3eac93",
            "taxConfigurationDetailExceptions": []
          }
        ]
      }
    ],
    "status": "ACTIVE",
    "facilityId": "f8de95ec-e46f-48c8-9542-9ad4cf631a84",
    "fromTime": "10:00",
    "toTime": "10:00",
    "code": "TC-0002",
    "fromDate": "",
    "toDate": "2021/05/03"
  },
  "response":{
    "statusCode": 400,
    "message" : "The entity has Not received successfully With Blank From Date",
    "responseObject": {

    }
  }
}