{
  "meta": {
    "testCaseId": "test-Add Bank with all Mandatory Information without Facility- Mandatory Field",
    "entity": "bank",
    "operation": "post",
    "date": "01-Apr-2021"
  },
  "data": {
    "status": "ACTIVE",
    "name": "BANK_${TESTRUNEXECTIME}",
    "shortName": "BUSI",
    "code": "Auto generated",
    "isFacility": false
  },


  "response": {
    "statusCode": 400,
    "message": "The entity has not added. Facility can not be False",
    "responseObject": {

    }
  }
}