{
  "meta": {
    "testCaseId": "test-Add Bank Name with more then 50 characters",
    "entity": "bank",
    "operation": "post",
    "date": "01-Apr-2021"
  },
  "data": {
    "status": "ACTIVE",
    "name": "SBI BUSINESS SBI BUSINESS SBI BUSINESS SBI BUSINESS SBI BUSINESS",
    "shortName": "BUSI",
    "code": "Auto generated",
    "isFacility": false
  },


  "response": {
    "statusCode": 400,
    "message": "The entity has not added. Name field length can not more then 50 ",
    "responseObject": {

    }
  }
}