{
  "meta": {
    "testCaseId": "test_Add Bank without User Defined code.json",
    "entity": "bank",
    "operation": "post",
    "date": "02-Apr-2021"
  },
  "data": {
    "status": "ACTIVE",
    "name": "BANK_${TESTRUNEXECTIME}",
    "shortName": "BUSI",
    "code": " ",
    "isFacility": false
  },


  "response": {
    "statusCode": 400,
    "message": "The entity has not added. Code field can not be blank",
    "responseObject": {

    }
  }
}