{
  "meta": {
    "testCaseId": "test-Update Bank Status",
    "entity": "bank",
    "operation": "put",
    "date": "02-Apr-2021"
  },
  "data": {
    "shortName": "BUSI",
    "isFacility": false,
    "branchDetail": [],
    "id": "6ee2c8e7-c243-4c33-b427-545d1d30d33d",
    "name": "KP bank",
    "status": "INACTIVE",
    "displayName": "MP bank",
    "code": "BA-2021-4-2-00007",
    "tenantId": "60333984-86bb-47e0-910c-2edfd42500bd"
  },

  "response": {
    "statusCode": 200,
    "message": "The entity has been updated successfully with Status",
    "responseObject": {

    }
  }
}