{
  "meta": {
    "testCaseId": "test-Employee Type having All Mandatory details",
    "entity": "employeetypes",
    "operation": "get",
    "date": "11-March-2021"
  },
  "data":{
    "id": "f6719d67-3010-44f9-b6d8-2a5697f0fa09"
  },
  "response": {
    "statusCode": 200,
    "message": "The entity has been received successfully",
    "responseObject": {
  "employeeCategoryId": "NURSE",
  "statusString": "INACTIVE",
  "id": "f6719d67-3010-44f9-b6d8-2a5697f0fa09",
  "name": "APR101",
  "status": "INACTIVE",
  "displayName": "APR101",
  "code": "OM-2021-3-11-00005",
  "tenantId": "60333984-86bb-47e0-910c-2edfd42500bd"
}
}

    }
