{
    "meta":{
	    "testCaseId": "test-Update User Defined Code field",
	    "entity"    : "allegrycategory",
	    "operation" : "put",
	    "date"      : "31-march-2020"
	},
	"data" :{
		"symbol": " ",
		"statusString": "ACTIVE",
		"id": "4b0db1f9-be50-4847-b2b9-a047758caafa",
		"name": "statu",
		"status": "ACTIVE",
		"displayName": "statu",
		"code": "nik-00987",
		"tenantId": "60333984-86bb-47e0-910c-2edfd42500bd"
	},

	"response": {
		"statusCode": 200,
		"message" : "The entity update user defined code field data has been received successfully",
		"responseObject": {
		

		}
	}
}