{
    "meta":{
	    "testCaseId": "test-Users-001",
	    "entity"    : "users",
	    "operation" : "get",
	    "date"      : "31-march-2020"
	},
	"data" : {
		    "id":"9232a443-0733-4aa3-b5ad-8004ce34b890"
	},
	"response":{
		"statusCode": 200,
		"message" : "The entity has been received successfully User Details",
		"responseObject": {
			
		}
	}
}