{
  "meta": {
    "testCaseId": "AST-001",
    "entity": "ast",
    "operation": "post",
    "date": "09-March-2021"
  },
  "data": {
    "status": "ACTIVE",
    "name": "asgfs1",
    "fromTime": "16:31",
    "toTime": "17:32",
    "code": "Auto generated"
  },
  "response": {
    "statusCode": 400,
    "message": "The entity has Not received. Add New Appointment Slot Type with Duplicate Name. ",
    "responseObject": {

    }
  }
}