{
  "meta": {
    "testCaseId": "test-Update Service Group Status",
    "entity": "services",
    "operation": "put",
    "date": "30-March-2021"
  },
  "data": {
    "serviceGroupId": "90b9cefe-d128-4ba8-ab3b-4bfb853e42db",
    "serviceGruop": null,
    "serviceSynonymName": "Service",
    "serviceTypeId": "00000000-0000-0000-0000-000000000000",
    "serviceType": null,
    "serviceName": "User service",
    "type": "servicegroup",
    "createdAt": "2021-03-30T21:49:05.394702",
    "serviceInformation": null,
    "serviceTariff": null,
    "serviceAdditionalDocuments": null,
    "serviceEquipmentDetails": [],
    "serviceMandatoryQuestion": [],
    "servicePerformingLocations": [],
    "serviceRequisitionRestrictions": null,
    "serviceInformationSetting": null,
    "serviceInformationConfigSetting": null,
    "serviceTerminologyArea": [],
    "serviceGroupRelation": {
      "serviceId": "a019b817-18b3-4566-a955-8b0948118e2d",
      "serviceGroupId": "90b9cefe-d128-4ba8-ab3b-4bfb853e42db"
    },
    "id": "a019b817-18b3-4566-a955-8b0948118e2d",
    "name": "Hi",
    "status": "INACTIVE",
    "displayName": "Hi",
    "code": "OM2021-3-3100001",
    "tenantId": "60333984-86bb-47e0-910c-2edfd42500bd"
  },

  "response": {
    "statusCode": 200,
    "message": "The entity has been added updated successfully with updated Status",
    "responseObject": {

    }
  }
}