{
  "meta": {
    "testCaseId": "test-Search Service Group with code as system generated without prefix",
    "entity": "services",
    "operation": "get",
    "date": "30-March-2021"
  },
  "data": {
    "id": "ffae3458-42c1-4928-80b2-2408d51a35a1"
  },
  "response": {
    "statusCode": 200,
    "message": "The entity has been received successfully with code as system generated with Prefix",
    "responseObject": {
      "serviceGroupId": "90b9cefe-d128-4ba8-ab3b-4bfb853e42db",
      "serviceGruop": null,
      "serviceSynonymName": "Service",
      "serviceTypeId": "00000000-0000-0000-0000-000000000000",
      "serviceType": null,
      "serviceName": "Load service",
      "type": "servicegroup",
      "createdAt": "2021-03-30T21:55:10.850044",
      "serviceInformation": null,
      "serviceTariff": null,
      "serviceAdditionalDocuments": null,
      "serviceEquipmentDetails": [],
      "serviceMandatoryQuestion": [],
      "servicePerformingLocations": [],
      "serviceRequisitionRestrictions": null,
      "serviceInformationSetting": null,
      "serviceInformationConfigSetting": null,
      "serviceTerminologyArea": [],
      "serviceGroupRelation": {
        "serviceId": "ffae3458-42c1-4928-80b2-2408d51a35a1",
        "serviceGroupId": "90b9cefe-d128-4ba8-ab3b-4bfb853e42db"
      },
      "id": "ffae3458-42c1-4928-80b2-2408d51a35a1",
      "name": "Load service",
      "status": "ACTIVE",
      "displayName": "Load service",
      "code": "2021-3-3100001",
      "tenantId": "60333984-86bb-47e0-910c-2edfd42500bd"
    }
  }
}


