{
  "meta": {
    "testCaseId": "test-Add Location with Location Type as Clinic",
    "entity": "locations",
    "operation": "post",
    "date": "23-March-2021"
  },
  "data": {
  "locationTypeId": "CLINIC",
  "parentId": "00000000-0000-0000-0000-000000000000",
  "status": "ACTIVE",
  "name": "LOCATION_${TESTRUNEXECTIME}",
  "code": "Auto Generated"
},


  "response": {
    "statusCode": 200,
    "message": "The entity has been added successfully with Location type as Clinic",
    "responseObject": {

    }
  }
}