{
  "meta": {
    "testCaseId": "test-Update invoice Name",
    "entity": "invoice",
    "operation": "post",
    "date": "02-Apr-2021"
  },
  "data": {
    "invoiceDatetime": "2021-06-30T10:40:20.453Z",
    "invoiceMasterDetail": {
      "isGenerateInvoice": true,
      "isSummaryInvoice": true,
      "isDetailInvoice": true,
      "isSettlement": true,
      "settlementType": "FullSettlement"
    },
    "invoicePayment": {
      "totalAmount": 220,
      "toBeCollected": 0,
      "totalBillAmount": 222
    },
    "invoicePaymentDetails": [
      {
        "paymentType": "Cash",
        "currencyId": "c21e8504-0272-47f1-9ca8-34364a3c818b",
        "currencyName": "Indian Rupees",
        "baseCurrencyId": "c21e8504-0272-47f1-9ca8-34364a3c818b",
        "chequeDate": "2021-06-30T10:40:43.033Z",
        "paidDate": "2021-06-30T10:40:43.033Z",
        "totalAmount": 0,
        "toBeCollected": 0,
        "displayreceivedamount": "220.00",
        "receivedAmount": 220,
        "rowIdentifier": "3a06fa45-b361-4ae1-8486-3d431a039678"
      }
    ],
    "invoiceServiceDetails": [
      {
        "serviceGroupId": "caa9c7b8-038a-4442-b629-f500e4f466db",
        "serviceGroupName": "Hi",
        "totalAmount": 222,
        "isPay": true,
        "invoiceServiceItemDetails": [
          {
            "isCancel": false,
            "rendered": false,
            "isPay": true,
            "discount": 0,
            "tax": 0,
            "requisitionNumber": "QA/2021-5-11/00001",
            "serviceDate": "2021-07-01T00:00:00",
            "displayserviceDate": "01/07/2021",
            "serviceName": "service1122",
            "serviceId": "58d08ae7-af6b-4363-9121-51dce6360487",
            "quantity": 1,
            "price": 222,
            "netamonunt": 222,
            "amount": 222,
            "orderingConsultantId": "e6a69985-e6cf-4bd1-a125-ef594e5f73c1",
            "serviceDoctorName": "Teena  Patel",
            "serviceGroupId": "caa9c7b8-038a-4442-b629-f500e4f466db",
            "displaydiscount": "0.00",
            "displayprice": "222.00",
            "displaynetamonunt": "222.00",
            "displaytax": "0.00",
            "displayamount": "222.00",
            "rowIdentifier": "857fbc60-81ab-4f0e-9567-b3a21cc1c5b3"
          }
        ],
        "rowIdentifier": "4e2ab4ea-a5de-4254-9c2f-31ca93f237e2"
      }
    ],
    "displayInvoiceDate": "30-06-2021 04:10",
    "allPay": true,
    "imagePath": {
      "changingThisBreaksApplicationSecurity": "./assets/images/avatars/female-shape.png"
    },
    "motherCrNo": "Lana Lane",
    "invoiceBy": "00000000-0000-0000-0000-000000000000",
    "invoiceLocation": "e55d67bb-846c-473e-83a3-4a5a39cacf78",
    "visitTypeId": "Out Patient",
    "code": "Auto generated",
    "firstName": "Lana",
    "lastName": "Lane",
    "displayName": "Unx0rknrbwrfihnl3ppkgeqk0idyef7cpg6nht42o2q= Zyofzqttdaj80hp2bl7fz30459jjlsbk9u1+Etukmvi=",
    "displayCode": "QA/2021-6-29/03381",
    "dob": "01/01/1981 (40 Years)",
    "gender": "Female",
    "mobileNo": null,
    "patientId": "1888bdf1-06f6-4c67-b65f-a0fedde63da3",
    "doctorId": "e6a69985-e6cf-4bd1-a125-ef594e5f73c1",
    "doctorName": "Miss Teena  Patel",
    "ageGender": "40 Years / Female",
    "age": "40 Years",
    "address": "",
    "visitNumberId": "Lana0001",
    "facilityId": "0efaa7f7-7690-4238-a2f5-9ecd096e0811",
    "appointmentId": "2a03e948-8b6f-4116-8e1d-b07851369fcd"
  },
  "response": {
    "statusCode": 200,
    "message": "The entity has been updated successfully Invoice with less than Payment",
    "responseObject": {
    }
  }
}