{
    "meta":{
	    "testCaseId": "test-Update Special instructions field",
	    "entity"    : "sc",
	    "operation" : "put",
	    "date"      : "31-march-2020"
	},
	"data" :{
		"specialInstructions": "instruction field must regarding temp ",
		"statusString": "ACTIVE",
		"id": "fa1a09ff-8e96-4fcb-98ec-b706f30540ff",
		"name": "fdfry",
		"status": "ACTIVE",
		"displayName": "fdfry",
		"code": "12345iu",
		"tenantId": "60333984-86bb-47e0-910c-2edfd42500bd"
	},


	"response": {
		"statusCode": 200,
		"message" : "The entity with special instructions field has been updated successfully",
		"responseObject": {
		

		}
	}
}