{
  "meta": {
    "testCaseId": "test-Add Equipment Group with Auto Generated with Prefix",
    "entity": "equipmentmasters",
    "operation": "post",
    "date": "30-March-2021"
  },
  "data": {
    "status": "ACTIVE",
    "name": "EQUIPMENT G _${TESTRUNEXECTIME}",
    "code": "Auto generated",
    "type": "EquipmentGroup"
  },


  "response": {
    "statusCode": 200,
    "message": "The entity has been added successfully with Auto generated with Prefix",
    "responseObject": {

    }
  }
}