{
  "meta": {
    "testCaseId": "test_Add Terminology without User Defined code.json",
    "entity": "terminologycodificationsmasters",
    "operation": "post",
    "date": "30-March-2021"
  },
  "data": {
    "status": "ACTIVE",
    "name": "ICD-10",
    "code": ""
  },


  "response": {
    "statusCode": 400,
    "message": "The entity has not added. Code field can not be blank",
    "responseObject": {

    }
  }
}