{
  "meta": {
    "testCaseId": "test-Search Terminology with User defined code",
    "entity": "terminologycodificationsmasters",
    "operation": "get",
    "date": "30-March-2021"
  },
  "data": {
    "id": "b7628a80-282c-44e3-a5c6-bd05bf6368bd"
  },
  "response": {
    "statusCode": 200,
    "message": "The entity has been received successfully with User defined code",
    "responseObject": {
      "statusString": "ACTIVE",
      "id": "b7628a80-282c-44e3-a5c6-bd05bf6368bd",
      "name": "ICD-15",
      "status": "ACTIVE",
      "displayName": "ICD-15",
      "code": "30 Mar- 001",
      "tenantId": "60333984-86bb-47e0-910c-2edfd42500bd"
    }
    }
  }


