{
  "meta": {
    "testCaseId": "test-Add Terminology without Name- Mandatory field",
    "entity": "terminologycodificationsmasters",
    "operation": "post",
    "date": "30-March-2021"
  },
  "data": {
    "status": "ACTIVE",
    "name": "",
    "code": "Auto generated"
  },




  "response": {
    "statusCode": 400,
    "message": "The entity has not added. Name can not be blank",
    "responseObject": {

    }
  }
}