{
    "meta":{
	    "testCaseId": "test-namespaces-001",
	    "entity"    : "namespaces",
	    "operation" : "get",
	    "date"      : "31-march-2020"
	},
	"data": {
		"id": "9de384d7-24dd-4191-89ad-b73315782952"

	},
	"response": {
		"statusCode": 200,
		"message": "The entity has been received successfully",
		"responseObject": {

			"code": "ymd/2021-1-18/00001",
			"displayName": "date17",
			"level": 17,
			"name": "date17",
			"namespace": "date17",
			"namespaceTypeId": "LABANDCLINICALOBSERVATIONS",
			"status": "ACTIVE",
			"statusString": "ACTIVE",
			"tenantId": "60333984-86bb-47e0-910c-2edfd42500bd",
			"version": "date17"

		}
			
	}
}