{
  "meta":{
    "testCaseId": "test-namespaces-002",
    "entity"    : "namespaces",
    "operation" : "post",
    "date"      : "17-december-2020"
  },
  "data": {

    "code": "xxxxx",
    "level": 17,
    "namespace": "hit247",
    "namespaceTypeId": "BILLINGFORNULARY",
    "status": "ACTIVE",
    "version": "hit24"

  },
  "response": {
    "statusCode": 200,
    "message": "The entity has been received successfully for Others Applicable Gender and Relation Prefix with Active Status ",
    "responseObject": {



      "level": 17,
      "namespace": "hit27",
      "namespaceTypeId": "BILLINGFORNULARY",
      "status": "ACTIVE",
      "version": "hit27"


    }
    

  }
}