{
  "meta": {
    "testCaseId": "test-Update SOAP Note Template - Clinic Specific flag -False but Clinic field filled with data",
    "entity": "soapnotestamplate",
    "operation": "put",
    "date": "12-Apr-2021"
  },
  "data": {
    "statusString": "ACTIVE",
    "departmentSpecific": true,
    "clinicSpecific": false,
    "department": "c3a476b5-75f6-481c-ab0e-e930b3e09a2d",
    "clinic": "f5c456e0-e0ab-4ac3-8df5-5e75c2ec52c0",
    "baseTamplate": true,
    "confidential": true,
    "applicableGender": "BOTH",
    "facility": "[{\"id\":\"ab867bba-7c5b-4c21-a8a6-356ac54ff28c\",\"displayName\":\"APR99\"}]",
    "confidentialType": "GENERAL",
    "tamplatesectionblockdetail": [
      {
        "id": "76cf12bb-3159-4847-a268-e765efcead1e",
        "soapnotesId": "ec891e11-a4c8-4e57-afe7-c55788a535cf",
        "sectionblockPortletname": "5dc3d4a2-f6fd-431a-aab7-a02bf100dc24",
        "customizedSectionname": "Test 01",
        "multipleColumninrow": true,
        "ismandatorySigntamplate": false,
        "status": false,
        "srno": 1,
        "rowIdentifier": "6c3b784f-61fd-48e3-8179-4d5ce620125e"
      }
    ],
    "id": "ec891e11-a4c8-4e57-afe7-c55788a535cf",
    "name": "SOAP Note Template 101010",
    "status": "ACTIVE",
    "displayName": "SOAP Note Template 10",
    "code": "SN-2021-4-12-00012",
    "tenantId": "60333984-86bb-47e0-910c-2edfd42500bd"
  },
  "response": {
    "statusCode": 400,
    "message": "The entity has not added. Once Clinic specific flag true then only Clinic filed should be enable",
    "responseObject": {

    }
  }
}