{
  "meta": {
    "testCaseId": "test-Add SOAP Note Template Name With Special chars + Alphanumeric",
    "entity": "soapnotestamplate",
    "operation": "post",
    "date": "12-Apr-2021"
  },
  "data": {
    "displayText": "",
    "department": "c3a476b5-75f6-481c-ab0e-e930b3e09a2d",
    "clinic": "f5c456e0-e0ab-4ac3-8df5-5e75c2ec52c0",
    "applicableGender": "BOTH",
    "facility": "[{\"id\":\"f8de95ec-e46f-48c8-9542-9ad4cf631a84\",\"displayName\":\"87\"}]",
    "confidentialType": "GENERAL",
    "active": true,
    "status": "ACTIVE",
    "tamplatesectionblockdetail": [
      {
        "srno": 1,
        "customizedSectionname": "Test 01",
        "sectionblockPortletname": "5dc3d4a2-f6fd-431a-aab7-a02bf100dc24",
        "multipleColumninrow": true,
        "rowIdentifier": "9fc913c6-691e-4d9e-96db-60c1152271c8"
      }
    ],
    "name": "SOAP Note @01_${TESTRUNEXECTIME}",
    "code": "Auto generated",
    "departmentSpecific": true,
    "clinicSpecific": true,
    "baseTamplate": true,
    "confidential": true
  },

  "response": {
    "statusCode": 200,
    "message": "The entity has been added successfully with Name special char+Alphanumeric",
    "responseObject": {

    }
  }
}