{
  "meta": {
    "testCaseId": "test-Update State Name- In the City",
    "entity": "citys",
    "operation": "put",
    "date": "16-March-2021"
  },
  "data":{
    "cityName": "Bet dhwarka New",
    "place": "ISCITY",
    "shortName": "bet",
    "telephoneNumber": "32",
    "pinCode": null,
    "districtID": null,
    "stateID": "046b11a4-dac3-4836-8859-51d91eb3189b",
    "countryID": "489944c1-d47d-4bc1-922e-d013932309c9",
    "cityId": "00000000-0000-0000-0000-000000000000",
    "statusString": "ACTIVE",
    "id": "4c841084-32fd-4d83-9ddc-be76f213bbbd",
    "name": "Bet dhwarka",
    "status": "ACTIVE",
    "displayName": "Bet dhwarka",
    "code": "2021-3-16-00001",
    "tenantId": "60333984-86bb-47e0-910c-2edfd42500bd"
  },
  "response": {
    "statusCode": 400,
    "message": "The entity has not updated. Country and satte not match",
    "responseObject": {

    }
  }
}