{
  "meta": {
    "testCaseId": "test-Add City with Telephone Code (Prefix) without special character(+)",
    "entity": "citys",
    "operation": "post",
    "date": "16-March-2021"
  },
  "data":{
    "status": "ACTIVE",
    "place": "ISCITY",
    "cityName": "CITY_${TESTRUNEXECTIME}",
    "shortName": "Bala",
    "telephoneNumber": "23",
    "code": "Auto generated",
    "countryID": "489944c1-d47d-4bc1-922e-d013932309c9",
    "stateID": "43c58f74-d036-4bd2-98f2-b166d1772943",
    "cityId": "00000000-0000-0000-0000-000000000000"
  },
  "response": {
    "statusCode": 400,
    "message": "The entity has not added. Telephonecode can not add without + sign",
    "responseObject": {

    }
  }
}