{
  "meta": {
    "testCaseId": "test-Add Town without District Name- Mandatory field",
    "entity": "citys",
    "operation": "post",
    "date": "16-March-2021"
  },
  "data":{
    "status": "ACTIVE",
    "place": "ISTOWN",
    "cityName": "Moti charel",
    "shortName": "",
    "telephoneNumber": "87",
    "pinCode": "ABC123",
    "code": "Auto Generated",
    "countryID": "489944c1-d47d-4bc1-922e-d013932309c9",
    "stateID": "43c58f74-d036-4bd2-98f2-b166d1772943",
    "districtID": "00000000-0000-0000-0000-000000000000",
    "cityId": "00000000-0000-0000-0000-000000000000"
  },
  "response": {
    "statusCode": 400,
    "message": "The entity has not added. District ID can not ne blank",
    "responseObject": {

    }
  }
}