{
  "meta": {
    "testCaseId": "AS-001",
    "entity": "as",
    "operation": "post",
    "date": "02-March-2021"
  },
  "data": {
		"externalPatient": true,
		"referralPatient": true,
		"appointmentCategoryId": "53a390ff-2c6f-4459-8223-4252365894d6",
		"patientCondition": "STB_STABLE",
		"serviceId": "d3b7bcb3-1ab7-4acd-ac1f-b864f8a7bf05",
		"appointmentStatus": "BOOKED",
		"patienteligibilitydetailModel": {
			"eligibilityType": "2",
			"eligibilityCode": "JK0999",
			"eligibilityName": "MAc Vikicy",
			"sponsorType": "United India",
			"isAppointmentEligibility": true
		},
		"referralDetailsModel": {
			"referredByName": "3b7f7b98-c250-4660-a4e0-2914c30a3e76",
			"address": "E/23, Woodland Ave",
			"cityId": "7bb8743c-cff4-4fbc-9345-ea31f3296aec",
			"stateId": "43c58f74-d036-4bd2-98f2-b166d1772943",
			"countryId": "489944c1-d47d-4bc1-922e-d013932309c9",
			"phoneNumber": "9090999990",
			"email": "jk@gmail.com",
			"referralReasonRemarks": "",
			"appointmentType": "1"
		},
		"packageDetailsModel": [],
		"otherDetailsModel": {
			"otherDetails": "Other MJ Detail"
		},
		"appointmentRecursive": {
			"recurrenceType": "weekly",
			"startTime": "09:15",
			"endTime": "09:30"
		},
		"appointmentDate": "2021-02-27",
		"startTime": "09:15",
		"endTime": "09:30",
		"visitTypeId": "Out Patient",
		"code": "Auto generated",
		"firstName": "Nikita",
		"lastName": "Vora",
		"displayName": null,
		"dob": "10-06-2015 (5 Years)",
		"gender": "Female",
		"motherCrNo": "PR01/2021-1/00001",
		"mobileNo": "8347444976",
		"imagePath": {
			"changingThisBreaksApplicationSecurity": "./assets/images/avatars/female-shape.png"
		},
		"patientId": "c88bcdca-3f4c-44a8-b9cd-420c263ff335",
		"address": "frest,0001,dsfdg,India,Gujarat,NARANPURA",
		"previousAppointmentsModel": [{
			"patientId": "c88bcdca-3f4c-44a8-b9cd-420c263ff335",
			"facilityId": "78b410f5-a173-4c48-acbb-9bd5a2e07b93",
			"clinicId": "fd390b8b-fd00-4ebf-a6b0-377bb453e14a",
			"doctorId": "JVS Doctor  Ahm",
			"serviceId": "3e1da8f0-9bed-4021-a61f-609a67796dc4",
			"departmentId": "a7a41600-689b-4a48-9659-c6ac07bc2d71",
			"appointmentDate": "02-27-2021",
			"startTime": "16:00:00",
			"endTime": "16:15:00",
			"appointmentStatus": "BOOKED",
			"appointmentCategoryId": "6f58143d-074c-4320-ac3a-c479e6be6b60",
			"patientComplaint": null,
			"patientCondition": "NORMAL_NORMAL",
			"isReferralPatient": false,
			"visitNumber": "2021/00116",
			"episodNumber": "JK0991",
			"otherDetailsModel": null,
			"packageDetailsModel": [],
			"patienteligibilitydetailModel": null,
			"referralDetailsModel": null,
			"appointmentRecursive": null,
			"statusString": "ACTIVE",
			"id": "de0c5dcf-4464-45f5-92ac-0b67641a17fa",
			"name": null,
			"status": "ACTIVE",
			"displayName": null,
			"code": "2021/00116",
			"tenantId": "60333984-86bb-47e0-910c-2edfd42500bd"
		}],
		"clinicId": "5590998b-5648-4b3c-985c-f1ac5cfbe2a8",
		"facilityId": "62c8809f-e0ae-4ce4-b9ba-92b467c0b4c9",
		"departmentId": "0cb0cfd0-38b7-4a61-b5bb-f5772b7ba446",
		"doctorId": "3f3ed1a6-f588-4782-bd57-9a701e0c2628",
		"episodNumber": "klo009",
		"status": "ACTIVE"
	},
  "response": {
    "statusCode": 200,
    "message": "The entity has been received successfully Add New Appointment with Referral and Eligibility Details. ",
    "responseObject": {

    }
  }
  
}