{
  "meta": {
    "testCaseId": "get-AS-001",
    "entity": "as",
    "operation": "get",
    "date": "02-March-2021"
  },
  "data": {
		"id":"d226ad8a-9e37-428a-9aa4-85802723372a"
      },
  "response": {
    "statusCode": 200,
    "message": "The entity has been Get Successfully for Search Appointment based on 24 hours logic for 4 AM Time Slot. ",
    "responseObject": {

      
    }
  }
}