{
  "meta": {
    "testCaseId": "AS-001",
    "entity": "as",
    "operation": "post",
    "date": "02-March-2021"
  },
  "data": {
		"externalPatient": false,
		"referralPatient": true,
		"address": "frest,0001,dsfdg,India,Gujarat,NARANPURA",
		"appointmentCategoryId": "6f58143d-074c-4320-ac3a-c479e6be6b60",
		"appointmentDate": null,
		"startTime": "15:00",
		"endTime": "15:30",

		"appointmentRecursive": {
			"recurrenceType": "weekly",
			"startTime": "12:00",
			"endTime": "12:15"
		},
		"appointmentStatus": "BOOKED",
		"clinicId": "fd390b8b-fd00-4ebf-a6b0-377bb453e14a",
		"code": "Auto generated",
		"departmentId": "a7a41600-689b-4a48-9659-c6ac07bc2d71",
		"displayName": null,
		"dob": "10-06-2015",
		"doctorId": "3f3ed1a6-f588-4782-bd57-9a701e0c2628",
		"episodNumber": "JK0991",
		"facilityId": "78b410f5-a173-4c48-acbb-9bd5a2e07b93",
		"firstName": "Nikita",
		"gender": "Female",
		"imagePath": {
			"changingThisBreaksApplicationSecurity": "./assets/images/avatars/female-shape.png"
		},
		"lastName": "Vora",
		"mobileNo": "8347444976",
		"motherCrNo": "PR01/2021-1/00001",
		"otherDetailsModel": {},
		"packageDetailsModel": [],
		"patientCondition": "NORMAL_NORMAL",
		"patientId": "c88bcdca-3f4c-44a8-b9cd-420c263ff335",
		"patienteligibilitydetailModel": {
			"eligibilityType": "1"
		},
		"previousAppointmentsModel": [],
		"referralDetailsModel": {
			"referredByName": "3f3ed1a6-f588-4782-bd57-9a701e0c2628",
			"address": "E/23, River side",
			"appointmentType": "1",
			"cityId": "7bb8743c-cff4-4fbc-9345-ea31f3296aec",
			"countryId": "489944c1-d47d-4bc1-922e-d013932309c9",
			"email": "mitul.jani@jvsgroup.com",
			"stateId": "43c58f74-d036-4bd2-98f2-b166d1772943"
		},
		"serviceId": "3e1da8f0-9bed-4021-a61f-609a67796dc4",
		"status": "ACTIVE",
		"visitTypeId": "Out Patient"
	},
  "response": {
    "statusCode": 400,
    "message": "The entity has Not received. Add New Appointment without Appointment Date. ",
    "responseObject": {

    }
  }
  
}