{
  "meta": {
    "testCaseId": "test-department-002",
    "entity": "department",
    "operation": "put",
    "date": "10-december-2020"
  },
  "data": {

    "id": "6d800cec-cd0f-4e53-aa10-3b36ef95ef81",
    "code": "yy-2021-1-11-00004",
    "departmentName": "doctor department7",
    "displayName": "doctor department6",
    "facilityId": "5e2a4305-34a2-4b00-9fce-d9ed6d6abcfe",
    "head": "hit",
    "name": "doctor department6",
    "status": "InActive",
    "statusString": "INACTIVE",
    "tenantId": "793c17a9-1991-4f23-9e0f-21cc1e0a91de",
    "type": "Non Clinical"



  },
  "response": {
    "statusCode": 200,
    "message": "The entity has been received successfully",
    "responseObject": {

      "id": "6d800cec-cd0f-4e53-aa10-3b36ef95ef81",
      "code": "yy-2021-1-11-00004",
      "departmentName": "doctor department7",
      "displayName": "doctor department6",
      "facilityId": "5e2a4305-34a2-4b00-9fce-d9ed6d6abcfe",
      "head": "hit",
      "name": "doctor department6",
      "status": "InActive",
      "statusString": "INACTIVE",
      "tenantId": "793c17a9-1991-4f23-9e0f-21cc1e0a91de",
      "type": "Non Clinical"

    }
  }
}