{
  "meta": {
    "testCaseId": "test-Add Blood Group Name  with Blank Space",
    "entity": "bloodcomponentmasters",
    "operation": "post",
    "date": "27-March-2021"
  },
  "data": {
    "displaySequence": 0,
    "status": "ACTIVE",
    "name": "         ",
    "code": "Auto generated"
  },


  "response": {
    "statusCode": 400,
    "message": "The entity has not added. Name can not be with blank space",
    "responseObject": {

    }
  }
}