{
  "meta": {
    "testCaseId": "test-Add Blood Group without Display Sequence(0-100)-Non mandatory field but default set as 0",
    "entity": "bloodcomponentmasters",
    "operation": "post",
    "date": "27-March-2021"
  },
  "data": {
    "displaySequence": 0,
    "status": "ACTIVE",
    "name": "BloodG_${TESTRUNEXECTIME}",
    "code": "Auto generated"
  },


  "response": {
    "statusCode": 200,
    "message": "The entity has been added successfully with default Display sequence 0",
    "responseObject": {

    }
  }
}