{
  "meta": {
    "testCaseId": "test-Add Currency with Alphabets on decimal field",
    "entity": "currencymasters",
    "operation": "post",
    "date": "01-Apr-2021"
  },
  "data": {
    "status": "ACTIVE",
    "name":  "CURRENCY_${TESTRUNEXECTIME}",
    "shortName": "ERO",
    "decimalPlaces": "ABC",
    "code": "Auto generated"

  },



  "response": {
    "statusCode": 400,
    "message": "The entity has not added. DecimalPlaces can not allow alphabets",
    "responseObject": {

    }
  }
}