{
  "meta": {
    "testCaseId": "test-Add Currency with User Defined",
    "entity": "currencymasters",
    "operation": "post",
    "date": "01-Apr-2021"
  },
  "data": {
    "status": "ACTIVE",
    "name":  "CURRENCY_${TESTRUNEXECTIME}",
    "shortName": "ARI",
    "decimalPlaces": 1,
    "code":  "CURRENCY_${TESTRUNEXECTIME}"
  },
  "response": {
    "statusCode": 200,
    "message": "The entity has been added successfully with user defined code",
    "responseObject": {

    }
  }
}