{
  "meta": {
    "testCaseId": "test-Fetch the record which having Doctor Name with Area Type is Rural with all mandatory Information.json",
    "entity": "referralss",
    "operation": "get",
    "date": "27-March-2021"
  },
  "data": {
    "id": "c42e582d-d067-4b5f-8b07-7b9d234a1079"
  },

  "response": {
    "statusCode": 200,
    "message": "The entity has been received successfully having Doctor Name with Area Type is Rural with all mandatory Information",
    "responseObject": {

    }


}

    }

