{
  "meta": {
    "testCaseId": "test-Duplicate (Referred by) Doctor Name with Area Type Urban",
    "entity": "referralss",
    "operation": "post",
    "date": "24-March-2021"
  },
  "data": {
    "districtID": "",
    "cityID": "c02b4262-c6cc-49cc-a79b-75dee2bbf13d",
    "stateID": "43c58f74-d036-4bd2-98f2-b166d1772943",
    "countryID": "489944c1-d47d-4bc1-922e-d013932309c9",
    "status": "ACTIVE",
    "referredBy": "ReferredbyDoctor",
    "areaType": "URBAN",
    "referredName": "Dr Anuj Patel",
    "addressLine1": "Mahatma lane",
    "street": "Gandhi Street",
    "location": "Gurukul",
    "pin": "380009",
    "homePhone": "0792667676",
    "mobilePhone": "9845689345",
    "emailAddress": "anu@gmail.com"
  },


  "response": {
    "statusCode": 400,
    "message": "The entity has not added- ReferredName can not be Duplicate",
    "responseObject": {

    }
  }
}