{
  "meta": {
    "testCaseId": "test-Selection of Referred by Hospital with Area Type Urban - without Land/Home Phone Number-Mandatory field",
    "entity": "referralss",
    "operation": "post",
    "date": "25-March-2021"
  },
  "data": {
    "districtID": "",
    "cityID": "c02b4262-c6cc-49cc-a79b-75dee2bbf13d",
    "stateID": "43c58f74-d036-4bd2-98f2-b166d1772943",
    "countryID": "489944c1-d47d-4bc1-922e-d013932309c9",
    "status": "ACTIVE",
    "referredBy": "ReferredbyHospital",
    "areaType": "URBAN",
    "referredName": "Dr Snehal",
    "addressLine1": "SAI HOSPOTAL",
    "street": "KANKARIA LANE",
    "location": "KANKARIA",
    "pin": "380009",
    "homePhone": "",
    "mobilePhone": "7878787878",
    "emailAddress": "${TESTRUNEXECTIME}@gmail.com"
  },
  "response": {
    "statusCode": 400,
    "message": "The entity has not added. Home Phone can not be empty",
    "responseObject": {

    }
  }
}