{
    "meta":{
	    "testCaseId": "test-Add New Master Without Order By",
	    "entity"    : "qt",
	    "operation" : "post",
	    "date"      : "31-march-2020"
	},
	"data" : {
		"status": "ACTIVE",
		"questiontemplatedetail": [
			{
				"questionId": "366d77ac-b7d2-45eb-a041-739d6e2f1da9",
				"orderBy": "",
				"defaultValue": "1",
				"rowIdentifier": "9c7c33ff-04c3-400a-a00b-44223a38a64d"
			}
		],
		"name": "specific activity@"
	},


	"response": {
		"statusCode": 400,
		"message" : "The entity without question id has been NOT received successfully",
		"responseObject": {
		

		}
	}
}