{
    "meta":{
	    "testCaseId": "test-Add New Master With Item Type as Facility Furniture",
	    "entity"    : "itemcategory",
	    "operation" : "post",
	    "date"      : "31-march-2020"
	},
	"data":{
	"name" : "K_${TESTRUNEXECTIME}",
	"code": "Auto generated",
	"children": [],
	"itemType": "Facility Furniture",
	"itemcategoryuomaccount": {
		"baseUomCode": "00000000-0000-0000-0000-000000000000",
		"trackUomCode": "00000000-0000-0000-0000-000000000000",
		"salesUomCode": "00000000-0000-0000-0000-000000000000",
		"purchaseUomCode": "00000000-0000-0000-0000-000000000000",
		"defaultMarkUpPercentage": 6,
		"expiryPeriod": 10,
		"shelfLifeLimitPercentage": 10,
		"serialized": false,
		"batchTracked": true,
		"defaultPricingMethod": "SELLINGPRICE"
	},
	"status": "ACTIVE"

},


	"response": {
		"statusCode": 200,
		"message" : "The entity with item type With Facility Furniture HAS been received successfully",
		"responseObject": {
		

		}
	}
}